2015-09-29 11:53:04,746 - ResourceManager : found ru/ai/ccb/artifactGenerator/algorithm/algorithm_script.vm with loader org.apache.velocity.runtime.resource.loader.ClasspathResourceLoader
2015-09-29 11:53:04,761 - ResourceManager : found ru/ai/ccb/artifactGenerator/batch/batch_script.vm with loader org.apache.velocity.runtime.resource.loader.ClasspathResourceLoader
2015-09-29 11:56:38,520 - SimpleLog4JLogSystem initialized using logfile 'velocity.log'
2015-09-29 11:56:38,520 - ************************************************************** 
2015-09-29 11:56:38,520 - Starting Jakarta Velocity v1.4
2015-09-29 11:56:38,520 - RuntimeInstance initializing.
2015-09-29 11:56:38,520 - Default Properties File: org\apache\velocity\runtime\defaults\velocity.properties
2015-09-29 11:56:38,520 - Trying to use logger class org.apache.velocity.runtime.log.AvalonLogSystem
2015-09-29 11:56:38,520 - Couldn't find class org.apache.velocity.runtime.log.AvalonLogSystem or necessary supporting classes in classpath. Exception : java.lang.NoClassDefFoundError: org/apache/log/format/Formatter
2015-09-29 11:56:38,520 - Trying to use logger class org.apache.velocity.runtime.log.SimpleLog4JLogSystem
2015-09-29 11:56:38,520 - Using logger class org.apache.velocity.runtime.log.SimpleLog4JLogSystem
2015-09-29 11:56:38,535 - Default ResourceManager initializing. (class org.apache.velocity.runtime.resource.ResourceManagerImpl)
2015-09-29 11:56:38,535 - Resource Loader Instantiated: org.apache.velocity.runtime.resource.loader.ClasspathResourceLoader
2015-09-29 11:56:38,535 - ClasspathResourceLoader : initialization starting.
2015-09-29 11:56:38,535 - ClasspathResourceLoader : initialization complete.
2015-09-29 11:56:38,535 - ResourceCache : initialized. (class org.apache.velocity.runtime.resource.ResourceCacheImpl)
2015-09-29 11:56:38,535 - Default ResourceManager initialization complete.
2015-09-29 11:56:38,535 - Loaded System Directive: org.apache.velocity.runtime.directive.Literal
2015-09-29 11:56:38,535 - Loaded System Directive: org.apache.velocity.runtime.directive.Macro
2015-09-29 11:56:38,535 - Loaded System Directive: org.apache.velocity.runtime.directive.Parse
2015-09-29 11:56:38,535 - Loaded System Directive: org.apache.velocity.runtime.directive.Include
2015-09-29 11:56:38,535 - Loaded System Directive: org.apache.velocity.runtime.directive.Foreach
2015-09-29 11:56:38,660 - Created: 20 parsers.
2015-09-29 11:56:38,676 - Velocimacro : initialization starting.
2015-09-29 11:56:38,676 - Velocimacro : allowInline = true : VMs can be defined inline in templates
2015-09-29 11:56:38,676 - Velocimacro : allowInlineToOverride = false : VMs defined inline may NOT replace previous VM definitions
2015-09-29 11:56:38,676 - Velocimacro : allowInlineLocal = false : VMs defined inline will be  global in scope if allowed.
2015-09-29 11:56:38,676 - Velocimacro : messages on  : VM system will output logging messages
2015-09-29 11:56:38,676 - Velocimacro : autoload off  : VM system will not automatically reload global library macros
2015-09-29 11:56:38,676 - Velocimacro : initialization complete.
2015-09-29 11:56:38,676 - Velocity successfully started.
2015-09-29 11:56:40,611 - ResourceManager : found ru/ai/ccb/artifactGenerator/genutils/messages/named_script.vm with loader org.apache.velocity.runtime.resource.loader.ClasspathResourceLoader
2015-09-29 11:56:40,673 - ResourceManager : found ru/ai/ccb/artifactGenerator/genutils/messages/NamedMessages.vm with loader org.apache.velocity.runtime.resource.loader.ClasspathResourceLoader
2015-09-29 11:56:40,705 - ResourceManager : found ru/ai/ccb/artifactGenerator/algorithm/algorithm_script.vm with loader org.apache.velocity.runtime.resource.loader.ClasspathResourceLoader
2015-09-29 11:56:40,720 - ResourceManager : found ru/ai/ccb/artifactGenerator/batch/batch_script.vm with loader org.apache.velocity.runtime.resource.loader.ClasspathResourceLoader
2015-09-29 11:57:29,227 - SimpleLog4JLogSystem initialized using logfile 'velocity.log'
2015-09-29 11:57:29,227 - ************************************************************** 
2015-09-29 11:57:29,227 - Starting Jakarta Velocity v1.4
2015-09-29 11:57:29,227 - RuntimeInstance initializing.
2015-09-29 11:57:29,227 - Default Properties File: org\apache\velocity\runtime\defaults\velocity.properties
2015-09-29 11:57:29,227 - Trying to use logger class org.apache.velocity.runtime.log.AvalonLogSystem
2015-09-29 11:57:29,227 - Couldn't find class org.apache.velocity.runtime.log.AvalonLogSystem or necessary supporting classes in classpath. Exception : java.lang.NoClassDefFoundError: org/apache/log/format/Formatter
2015-09-29 11:57:29,227 - Trying to use logger class org.apache.velocity.runtime.log.SimpleLog4JLogSystem
2015-09-29 11:57:29,227 - Using logger class org.apache.velocity.runtime.log.SimpleLog4JLogSystem
2015-09-29 11:57:29,227 - Default ResourceManager initializing. (class org.apache.velocity.runtime.resource.ResourceManagerImpl)
2015-09-29 11:57:29,242 - Resource Loader Instantiated: org.apache.velocity.runtime.resource.loader.ClasspathResourceLoader
2015-09-29 11:57:29,242 - ClasspathResourceLoader : initialization starting.
2015-09-29 11:57:29,242 - ClasspathResourceLoader : initialization complete.
2015-09-29 11:57:29,242 - ResourceCache : initialized. (class org.apache.velocity.runtime.resource.ResourceCacheImpl)
2015-09-29 11:57:29,242 - Default ResourceManager initialization complete.
2015-09-29 11:57:29,242 - Loaded System Directive: org.apache.velocity.runtime.directive.Literal
2015-09-29 11:57:29,242 - Loaded System Directive: org.apache.velocity.runtime.directive.Macro
2015-09-29 11:57:29,242 - Loaded System Directive: org.apache.velocity.runtime.directive.Parse
2015-09-29 11:57:29,242 - Loaded System Directive: org.apache.velocity.runtime.directive.Include
2015-09-29 11:57:29,242 - Loaded System Directive: org.apache.velocity.runtime.directive.Foreach
2015-09-29 11:57:29,273 - Created: 20 parsers.
2015-09-29 11:57:29,273 - Velocimacro : initialization starting.
2015-09-29 11:57:29,273 - Velocimacro : allowInline = true : VMs can be defined inline in templates
2015-09-29 11:57:29,273 - Velocimacro : allowInlineToOverride = false : VMs defined inline may NOT replace previous VM definitions
2015-09-29 11:57:29,273 - Velocimacro : allowInlineLocal = false : VMs defined inline will be  global in scope if allowed.
2015-09-29 11:57:29,273 - Velocimacro : messages on  : VM system will output logging messages
2015-09-29 11:57:29,273 - Velocimacro : autoload off  : VM system will not automatically reload global library macros
2015-09-29 11:57:29,273 - Velocimacro : initialization complete.
2015-09-29 11:57:29,273 - Velocity successfully started.
2015-09-29 11:57:31,256 - ResourceManager : found ru/ai/ccb/artifactGenerator/genutils/messages/named_script.vm with loader org.apache.velocity.runtime.resource.loader.ClasspathResourceLoader
2015-09-29 11:57:31,318 - ResourceManager : found ru/ai/ccb/artifactGenerator/genutils/messages/NamedMessages.vm with loader org.apache.velocity.runtime.resource.loader.ClasspathResourceLoader
2015-09-29 11:57:31,349 - ResourceManager : found ru/ai/ccb/artifactGenerator/algorithm/algorithm_script.vm with loader org.apache.velocity.runtime.resource.loader.ClasspathResourceLoader
2015-09-29 11:57:31,349 - ResourceManager : found ru/ai/ccb/artifactGenerator/batch/batch_script.vm with loader org.apache.velocity.runtime.resource.loader.ClasspathResourceLoader
2015-09-29 12:04:07,071 - SimpleLog4JLogSystem initialized using logfile 'velocity.log'
2015-09-29 12:04:07,071 - ************************************************************** 
2015-09-29 12:04:07,071 - Starting Jakarta Velocity v1.4
2015-09-29 12:04:07,071 - RuntimeInstance initializing.
2015-09-29 12:04:07,071 - Default Properties File: org\apache\velocity\runtime\defaults\velocity.properties
2015-09-29 12:04:07,071 - Trying to use logger class org.apache.velocity.runtime.log.AvalonLogSystem
2015-09-29 12:04:07,071 - Couldn't find class org.apache.velocity.runtime.log.AvalonLogSystem or necessary supporting classes in classpath. Exception : java.lang.NoClassDefFoundError: org/apache/log/format/Formatter
2015-09-29 12:04:07,071 - Trying to use logger class org.apache.velocity.runtime.log.SimpleLog4JLogSystem
2015-09-29 12:04:07,071 - Using logger class org.apache.velocity.runtime.log.SimpleLog4JLogSystem
2015-09-29 12:04:07,071 - Default ResourceManager initializing. (class org.apache.velocity.runtime.resource.ResourceManagerImpl)
2015-09-29 12:04:07,071 - Resource Loader Instantiated: org.apache.velocity.runtime.resource.loader.ClasspathResourceLoader
2015-09-29 12:04:07,071 - ClasspathResourceLoader : initialization starting.
2015-09-29 12:04:07,071 - ClasspathResourceLoader : initialization complete.
2015-09-29 12:04:07,071 - ResourceCache : initialized. (class org.apache.velocity.runtime.resource.ResourceCacheImpl)
2015-09-29 12:04:07,071 - Default ResourceManager initialization complete.
2015-09-29 12:04:07,071 - Loaded System Directive: org.apache.velocity.runtime.directive.Literal
2015-09-29 12:04:07,071 - Loaded System Directive: org.apache.velocity.runtime.directive.Macro
2015-09-29 12:04:07,071 - Loaded System Directive: org.apache.velocity.runtime.directive.Parse
2015-09-29 12:04:07,071 - Loaded System Directive: org.apache.velocity.runtime.directive.Include
2015-09-29 12:04:07,071 - Loaded System Directive: org.apache.velocity.runtime.directive.Foreach
2015-09-29 12:04:07,102 - Created: 20 parsers.
2015-09-29 12:04:07,102 - Velocimacro : initialization starting.
2015-09-29 12:04:07,102 - Velocimacro : allowInline = true : VMs can be defined inline in templates
2015-09-29 12:04:07,102 - Velocimacro : allowInlineToOverride = false : VMs defined inline may NOT replace previous VM definitions
2015-09-29 12:04:07,102 - Velocimacro : allowInlineLocal = false : VMs defined inline will be  global in scope if allowed.
2015-09-29 12:04:07,102 - Velocimacro : messages on  : VM system will output logging messages
2015-09-29 12:04:07,102 - Velocimacro : autoload off  : VM system will not automatically reload global library macros
2015-09-29 12:04:07,102 - Velocimacro : initialization complete.
2015-09-29 12:04:07,102 - Velocity successfully started.
2015-09-29 12:04:09,040 - ResourceManager : found ru/ai/ccb/artifactGenerator/genutils/messages/named_script.vm with loader org.apache.velocity.runtime.resource.loader.ClasspathResourceLoader
2015-09-29 12:04:09,133 - ResourceManager : found ru/ai/ccb/artifactGenerator/genutils/messages/NamedMessages.vm with loader org.apache.velocity.runtime.resource.loader.ClasspathResourceLoader
2015-09-29 12:04:09,165 - ResourceManager : found ru/ai/ccb/artifactGenerator/algorithm/algorithm_script.vm with loader org.apache.velocity.runtime.resource.loader.ClasspathResourceLoader
2015-09-29 12:04:09,180 - ResourceManager : found ru/ai/ccb/artifactGenerator/batch/batch_script.vm with loader org.apache.velocity.runtime.resource.loader.ClasspathResourceLoader
2015-09-29 16:16:57,637 - SimpleLog4JLogSystem initialized using logfile 'velocity.log'
2015-09-29 16:16:57,652 - ************************************************************** 
2015-09-29 16:16:57,652 - Starting Jakarta Velocity v1.4
2015-09-29 16:16:57,652 - RuntimeInstance initializing.
2015-09-29 16:16:57,652 - Default Properties File: org\apache\velocity\runtime\defaults\velocity.properties
2015-09-29 16:16:57,652 - Trying to use logger class org.apache.velocity.runtime.log.AvalonLogSystem
2015-09-29 16:16:57,652 - Couldn't find class org.apache.velocity.runtime.log.AvalonLogSystem or necessary supporting classes in classpath. Exception : java.lang.NoClassDefFoundError: org/apache/log/format/Formatter
2015-09-29 16:16:57,652 - Trying to use logger class org.apache.velocity.runtime.log.SimpleLog4JLogSystem
2015-09-29 16:16:57,652 - Using logger class org.apache.velocity.runtime.log.SimpleLog4JLogSystem
2015-09-29 16:16:57,652 - Default ResourceManager initializing. (class org.apache.velocity.runtime.resource.ResourceManagerImpl)
2015-09-29 16:16:57,652 - Resource Loader Instantiated: org.apache.velocity.runtime.resource.loader.ClasspathResourceLoader
2015-09-29 16:16:57,652 - ClasspathResourceLoader : initialization starting.
2015-09-29 16:16:57,652 - ClasspathResourceLoader : initialization complete.
2015-09-29 16:16:57,652 - ResourceCache : initialized. (class org.apache.velocity.runtime.resource.ResourceCacheImpl)
2015-09-29 16:16:57,652 - Default ResourceManager initialization complete.
2015-09-29 16:16:57,652 - Loaded System Directive: org.apache.velocity.runtime.directive.Literal
2015-09-29 16:16:57,652 - Loaded System Directive: org.apache.velocity.runtime.directive.Macro
2015-09-29 16:16:57,652 - Loaded System Directive: org.apache.velocity.runtime.directive.Parse
2015-09-29 16:16:57,652 - Loaded System Directive: org.apache.velocity.runtime.directive.Include
2015-09-29 16:16:57,668 - Loaded System Directive: org.apache.velocity.runtime.directive.Foreach
2015-09-29 16:16:57,793 - Created: 20 parsers.
2015-09-29 16:16:57,793 - Velocimacro : initialization starting.
2015-09-29 16:16:57,793 - Velocimacro : allowInline = true : VMs can be defined inline in templates
2015-09-29 16:16:57,793 - Velocimacro : allowInlineToOverride = false : VMs defined inline may NOT replace previous VM definitions
2015-09-29 16:16:57,793 - Velocimacro : allowInlineLocal = false : VMs defined inline will be  global in scope if allowed.
2015-09-29 16:16:57,793 - Velocimacro : messages on  : VM system will output logging messages
2015-09-29 16:16:57,793 - Velocimacro : autoload off  : VM system will not automatically reload global library macros
2015-09-29 16:16:57,793 - Velocimacro : initialization complete.
2015-09-29 16:16:57,793 - Velocity successfully started.
2015-09-29 16:16:59,801 - ResourceManager : found ru/ai/ccb/artifactGenerator/genutils/messages/named_script.vm with loader org.apache.velocity.runtime.resource.loader.ClasspathResourceLoader
2015-09-29 16:16:59,880 - ResourceManager : found ru/ai/ccb/artifactGenerator/genutils/messages/NamedMessages.vm with loader org.apache.velocity.runtime.resource.loader.ClasspathResourceLoader
2015-09-29 16:16:59,911 - ResourceManager : found ru/ai/ccb/artifactGenerator/algorithm/algorithm_script.vm with loader org.apache.velocity.runtime.resource.loader.ClasspathResourceLoader
2015-09-29 16:16:59,926 - ResourceManager : found ru/ai/ccb/artifactGenerator/batch/batch_script.vm with loader org.apache.velocity.runtime.resource.loader.ClasspathResourceLoader
2015-09-29 16:18:48,936 - SimpleLog4JLogSystem initialized using logfile 'velocity.log'
2015-09-29 16:18:48,936 - ************************************************************** 
2015-09-29 16:18:48,936 - Starting Jakarta Velocity v1.4
2015-09-29 16:18:48,936 - RuntimeInstance initializing.
2015-09-29 16:18:48,936 - Default Properties File: org\apache\velocity\runtime\defaults\velocity.properties
2015-09-29 16:18:48,936 - Trying to use logger class org.apache.velocity.runtime.log.AvalonLogSystem
2015-09-29 16:18:48,936 - Couldn't find class org.apache.velocity.runtime.log.AvalonLogSystem or necessary supporting classes in classpath. Exception : java.lang.NoClassDefFoundError: org/apache/log/format/Formatter
2015-09-29 16:18:48,936 - Trying to use logger class org.apache.velocity.runtime.log.SimpleLog4JLogSystem
2015-09-29 16:18:48,936 - Using logger class org.apache.velocity.runtime.log.SimpleLog4JLogSystem
2015-09-29 16:18:48,936 - Default ResourceManager initializing. (class org.apache.velocity.runtime.resource.ResourceManagerImpl)
2015-09-29 16:18:48,936 - Resource Loader Instantiated: org.apache.velocity.runtime.resource.loader.ClasspathResourceLoader
2015-09-29 16:18:48,936 - ClasspathResourceLoader : initialization starting.
2015-09-29 16:18:48,936 - ClasspathResourceLoader : initialization complete.
2015-09-29 16:18:48,936 - ResourceCache : initialized. (class org.apache.velocity.runtime.resource.ResourceCacheImpl)
2015-09-29 16:18:48,936 - Default ResourceManager initialization complete.
2015-09-29 16:18:48,936 - Loaded System Directive: org.apache.velocity.runtime.directive.Literal
2015-09-29 16:18:48,951 - Loaded System Directive: org.apache.velocity.runtime.directive.Macro
2015-09-29 16:18:48,951 - Loaded System Directive: org.apache.velocity.runtime.directive.Parse
2015-09-29 16:18:48,951 - Loaded System Directive: org.apache.velocity.runtime.directive.Include
2015-09-29 16:18:48,951 - Loaded System Directive: org.apache.velocity.runtime.directive.Foreach
2015-09-29 16:18:48,967 - Created: 20 parsers.
2015-09-29 16:18:48,983 - Velocimacro : initialization starting.
2015-09-29 16:18:48,983 - Velocimacro : allowInline = true : VMs can be defined inline in templates
2015-09-29 16:18:48,983 - Velocimacro : allowInlineToOverride = false : VMs defined inline may NOT replace previous VM definitions
2015-09-29 16:18:48,983 - Velocimacro : allowInlineLocal = false : VMs defined inline will be  global in scope if allowed.
2015-09-29 16:18:48,983 - Velocimacro : messages on  : VM system will output logging messages
2015-09-29 16:18:48,983 - Velocimacro : autoload off  : VM system will not automatically reload global library macros
2015-09-29 16:18:48,983 - Velocimacro : initialization complete.
2015-09-29 16:18:48,983 - Velocity successfully started.
2015-09-29 16:18:51,044 - ResourceManager : found ru/ai/ccb/artifactGenerator/genutils/messages/named_script.vm with loader org.apache.velocity.runtime.resource.loader.ClasspathResourceLoader
2015-09-29 16:18:51,137 - ResourceManager : found ru/ai/ccb/artifactGenerator/genutils/messages/NamedMessages.vm with loader org.apache.velocity.runtime.resource.loader.ClasspathResourceLoader
2015-09-29 16:18:51,169 - ResourceManager : found ru/ai/ccb/artifactGenerator/algorithm/algorithm_script.vm with loader org.apache.velocity.runtime.resource.loader.ClasspathResourceLoader
2015-09-29 16:18:51,184 - ResourceManager : found ru/ai/ccb/artifactGenerator/batch/batch_script.vm with loader org.apache.velocity.runtime.resource.loader.ClasspathResourceLoader
2015-09-29 16:20:18,003 - SimpleLog4JLogSystem initialized using logfile 'velocity.log'
2015-09-29 16:20:18,003 - ************************************************************** 
2015-09-29 16:20:18,003 - Starting Jakarta Velocity v1.4
2015-09-29 16:20:18,003 - RuntimeInstance initializing.
2015-09-29 16:20:18,003 - Default Properties File: org\apache\velocity\runtime\defaults\velocity.properties
2015-09-29 16:20:18,003 - Trying to use logger class org.apache.velocity.runtime.log.AvalonLogSystem
2015-09-29 16:20:18,003 - Couldn't find class org.apache.velocity.runtime.log.AvalonLogSystem or necessary supporting classes in classpath. Exception : java.lang.NoClassDefFoundError: org/apache/log/format/Formatter
2015-09-29 16:20:18,003 - Trying to use logger class org.apache.velocity.runtime.log.SimpleLog4JLogSystem
2015-09-29 16:20:18,003 - Using logger class org.apache.velocity.runtime.log.SimpleLog4JLogSystem
2015-09-29 16:20:18,003 - Default ResourceManager initializing. (class org.apache.velocity.runtime.resource.ResourceManagerImpl)
2015-09-29 16:20:18,018 - Resource Loader Instantiated: org.apache.velocity.runtime.resource.loader.ClasspathResourceLoader
2015-09-29 16:20:18,018 - ClasspathResourceLoader : initialization starting.
2015-09-29 16:20:18,018 - ClasspathResourceLoader : initialization complete.
2015-09-29 16:20:18,018 - ResourceCache : initialized. (class org.apache.velocity.runtime.resource.ResourceCacheImpl)
2015-09-29 16:20:18,018 - Default ResourceManager initialization complete.
2015-09-29 16:20:18,018 - Loaded System Directive: org.apache.velocity.runtime.directive.Literal
2015-09-29 16:20:18,018 - Loaded System Directive: org.apache.velocity.runtime.directive.Macro
2015-09-29 16:20:18,018 - Loaded System Directive: org.apache.velocity.runtime.directive.Parse
2015-09-29 16:20:18,018 - Loaded System Directive: org.apache.velocity.runtime.directive.Include
2015-09-29 16:20:18,018 - Loaded System Directive: org.apache.velocity.runtime.directive.Foreach
2015-09-29 16:20:18,049 - Created: 20 parsers.
2015-09-29 16:20:18,049 - Velocimacro : initialization starting.
2015-09-29 16:20:18,049 - Velocimacro : allowInline = true : VMs can be defined inline in templates
2015-09-29 16:20:18,049 - Velocimacro : allowInlineToOverride = false : VMs defined inline may NOT replace previous VM definitions
2015-09-29 16:20:18,049 - Velocimacro : allowInlineLocal = false : VMs defined inline will be  global in scope if allowed.
2015-09-29 16:20:18,049 - Velocimacro : messages on  : VM system will output logging messages
2015-09-29 16:20:18,049 - Velocimacro : autoload off  : VM system will not automatically reload global library macros
2015-09-29 16:20:18,049 - Velocimacro : initialization complete.
2015-09-29 16:20:18,049 - Velocity successfully started.
2015-09-29 16:20:20,813 - ResourceManager : found ru/ai/ccb/artifactGenerator/genutils/messages/named_script.vm with loader org.apache.velocity.runtime.resource.loader.ClasspathResourceLoader
2015-09-29 16:20:21,078 - ResourceManager : found ru/ai/ccb/artifactGenerator/genutils/messages/NamedMessages.vm with loader org.apache.velocity.runtime.resource.loader.ClasspathResourceLoader
2015-09-29 16:20:21,109 - ResourceManager : found ru/ai/ccb/artifactGenerator/algorithm/algorithm_script.vm with loader org.apache.velocity.runtime.resource.loader.ClasspathResourceLoader
2015-09-29 16:20:21,125 - ResourceManager : found ru/ai/ccb/artifactGenerator/batch/batch_script.vm with loader org.apache.velocity.runtime.resource.loader.ClasspathResourceLoader
2015-09-29 19:09:20,037 - SimpleLog4JLogSystem initialized using logfile 'velocity.log'
2015-09-29 19:09:20,037 - ************************************************************** 
2015-09-29 19:09:20,037 - Starting Jakarta Velocity v1.4
2015-09-29 19:09:20,037 - RuntimeInstance initializing.
2015-09-29 19:09:20,037 - Default Properties File: org\apache\velocity\runtime\defaults\velocity.properties
2015-09-29 19:09:20,037 - Trying to use logger class org.apache.velocity.runtime.log.AvalonLogSystem
2015-09-29 19:09:20,037 - Couldn't find class org.apache.velocity.runtime.log.AvalonLogSystem or necessary supporting classes in classpath. Exception : java.lang.NoClassDefFoundError: org/apache/log/format/Formatter
2015-09-29 19:09:20,037 - Trying to use logger class org.apache.velocity.runtime.log.SimpleLog4JLogSystem
2015-09-29 19:09:20,037 - Using logger class org.apache.velocity.runtime.log.SimpleLog4JLogSystem
2015-09-29 19:09:20,037 - Default ResourceManager initializing. (class org.apache.velocity.runtime.resource.ResourceManagerImpl)
2015-09-29 19:09:20,052 - Resource Loader Instantiated: org.apache.velocity.runtime.resource.loader.ClasspathResourceLoader
2015-09-29 19:09:20,052 - ClasspathResourceLoader : initialization starting.
2015-09-29 19:09:20,052 - ClasspathResourceLoader : initialization complete.
2015-09-29 19:09:20,052 - ResourceCache : initialized. (class org.apache.velocity.runtime.resource.ResourceCacheImpl)
2015-09-29 19:09:20,052 - Default ResourceManager initialization complete.
2015-09-29 19:09:20,052 - Loaded System Directive: org.apache.velocity.runtime.directive.Literal
2015-09-29 19:09:20,052 - Loaded System Directive: org.apache.velocity.runtime.directive.Macro
2015-09-29 19:09:20,052 - Loaded System Directive: org.apache.velocity.runtime.directive.Parse
2015-09-29 19:09:20,052 - Loaded System Directive: org.apache.velocity.runtime.directive.Include
2015-09-29 19:09:20,052 - Loaded System Directive: org.apache.velocity.runtime.directive.Foreach
2015-09-29 19:09:20,084 - Created: 20 parsers.
2015-09-29 19:09:20,084 - Velocimacro : initialization starting.
2015-09-29 19:09:20,084 - Velocimacro : allowInline = true : VMs can be defined inline in templates
2015-09-29 19:09:20,084 - Velocimacro : allowInlineToOverride = false : VMs defined inline may NOT replace previous VM definitions
2015-09-29 19:09:20,084 - Velocimacro : allowInlineLocal = false : VMs defined inline will be  global in scope if allowed.
2015-09-29 19:09:20,084 - Velocimacro : messages on  : VM system will output logging messages
2015-09-29 19:09:20,084 - Velocimacro : autoload off  : VM system will not automatically reload global library macros
2015-09-29 19:09:20,084 - Velocimacro : initialization complete.
2015-09-29 19:09:20,084 - Velocity successfully started.
2015-09-29 19:09:22,142 - ResourceManager : found ru/ai/ccb/artifactGenerator/genutils/messages/named_script.vm with loader org.apache.velocity.runtime.resource.loader.ClasspathResourceLoader
2015-09-29 19:09:22,204 - ResourceManager : found ru/ai/ccb/artifactGenerator/genutils/messages/NamedMessages.vm with loader org.apache.velocity.runtime.resource.loader.ClasspathResourceLoader
2015-09-29 19:09:22,235 - ResourceManager : found ru/ai/ccb/artifactGenerator/algorithm/algorithm_script.vm with loader org.apache.velocity.runtime.resource.loader.ClasspathResourceLoader
2015-09-29 19:09:22,235 - ResourceManager : found ru/ai/ccb/artifactGenerator/batch/batch_script.vm with loader org.apache.velocity.runtime.resource.loader.ClasspathResourceLoader
2015-09-29 19:36:06,422 - SimpleLog4JLogSystem initialized using logfile 'velocity.log'
2015-09-29 19:36:06,422 - ************************************************************** 
2015-09-29 19:36:06,422 - Starting Jakarta Velocity v1.4
2015-09-29 19:36:06,422 - RuntimeInstance initializing.
2015-09-29 19:36:06,422 - Default Properties File: org\apache\velocity\runtime\defaults\velocity.properties
2015-09-29 19:36:06,422 - Trying to use logger class org.apache.velocity.runtime.log.AvalonLogSystem
2015-09-29 19:36:06,422 - Couldn't find class org.apache.velocity.runtime.log.AvalonLogSystem or necessary supporting classes in classpath. Exception : java.lang.NoClassDefFoundError: org/apache/log/format/Formatter
2015-09-29 19:36:06,422 - Trying to use logger class org.apache.velocity.runtime.log.SimpleLog4JLogSystem
2015-09-29 19:36:06,422 - Using logger class org.apache.velocity.runtime.log.SimpleLog4JLogSystem
2015-09-29 19:36:06,422 - Default ResourceManager initializing. (class org.apache.velocity.runtime.resource.ResourceManagerImpl)
2015-09-29 19:36:06,422 - Resource Loader Instantiated: org.apache.velocity.runtime.resource.loader.ClasspathResourceLoader
2015-09-29 19:36:06,437 - ClasspathResourceLoader : initialization starting.
2015-09-29 19:36:06,437 - ClasspathResourceLoader : initialization complete.
2015-09-29 19:36:06,437 - ResourceCache : initialized. (class org.apache.velocity.runtime.resource.ResourceCacheImpl)
2015-09-29 19:36:06,437 - Default ResourceManager initialization complete.
2015-09-29 19:36:06,437 - Loaded System Directive: org.apache.velocity.runtime.directive.Literal
2015-09-29 19:36:06,437 - Loaded System Directive: org.apache.velocity.runtime.directive.Macro
2015-09-29 19:36:06,437 - Loaded System Directive: org.apache.velocity.runtime.directive.Parse
2015-09-29 19:36:06,437 - Loaded System Directive: org.apache.velocity.runtime.directive.Include
2015-09-29 19:36:06,437 - Loaded System Directive: org.apache.velocity.runtime.directive.Foreach
2015-09-29 19:36:06,468 - Created: 20 parsers.
2015-09-29 19:36:06,468 - Velocimacro : initialization starting.
2015-09-29 19:36:06,468 - Velocimacro : allowInline = true : VMs can be defined inline in templates
2015-09-29 19:36:06,468 - Velocimacro : allowInlineToOverride = false : VMs defined inline may NOT replace previous VM definitions
2015-09-29 19:36:06,468 - Velocimacro : allowInlineLocal = false : VMs defined inline will be  global in scope if allowed.
2015-09-29 19:36:06,468 - Velocimacro : messages on  : VM system will output logging messages
2015-09-29 19:36:06,468 - Velocimacro : autoload off  : VM system will not automatically reload global library macros
2015-09-29 19:36:06,468 - Velocimacro : initialization complete.
2015-09-29 19:36:06,468 - Velocity successfully started.
2015-09-29 19:36:08,577 - ResourceManager : found ru/ai/ccb/artifactGenerator/genutils/messages/named_script.vm with loader org.apache.velocity.runtime.resource.loader.ClasspathResourceLoader
2015-09-29 19:36:08,655 - ResourceManager : found ru/ai/ccb/artifactGenerator/genutils/messages/NamedMessages.vm with loader org.apache.velocity.runtime.resource.loader.ClasspathResourceLoader
2015-09-29 19:36:08,671 - ResourceManager : found ru/ai/ccb/artifactGenerator/algorithm/algorithm_script.vm with loader org.apache.velocity.runtime.resource.loader.ClasspathResourceLoader
2015-09-29 19:36:08,702 - ResourceManager : found ru/ai/ccb/artifactGenerator/batch/batch_script.vm with loader org.apache.velocity.runtime.resource.loader.ClasspathResourceLoader
2015-09-29 19:57:56,556 - SimpleLog4JLogSystem initialized using logfile 'velocity.log'
2015-09-29 19:57:56,556 - ************************************************************** 
2015-09-29 19:57:56,557 - Starting Jakarta Velocity v1.4
2015-09-29 19:57:56,557 - RuntimeInstance initializing.
2015-09-29 19:57:56,557 - Default Properties File: org\apache\velocity\runtime\defaults\velocity.properties
2015-09-29 19:57:56,557 - Trying to use logger class org.apache.velocity.runtime.log.AvalonLogSystem
2015-09-29 19:57:56,557 - Couldn't find class org.apache.velocity.runtime.log.AvalonLogSystem or necessary supporting classes in classpath. Exception : java.lang.NoClassDefFoundError: org/apache/log/format/Formatter
2015-09-29 19:57:56,557 - Trying to use logger class org.apache.velocity.runtime.log.SimpleLog4JLogSystem
2015-09-29 19:57:56,557 - Using logger class org.apache.velocity.runtime.log.SimpleLog4JLogSystem
2015-09-29 19:57:56,563 - Default ResourceManager initializing. (class org.apache.velocity.runtime.resource.ResourceManagerImpl)
2015-09-29 19:57:56,565 - Resource Loader Instantiated: org.apache.velocity.runtime.resource.loader.ClasspathResourceLoader
2015-09-29 19:57:56,565 - ClasspathResourceLoader : initialization starting.
2015-09-29 19:57:56,565 - ClasspathResourceLoader : initialization complete.
2015-09-29 19:57:56,566 - ResourceCache : initialized. (class org.apache.velocity.runtime.resource.ResourceCacheImpl)
2015-09-29 19:57:56,566 - Default ResourceManager initialization complete.
2015-09-29 19:57:56,567 - Loaded System Directive: org.apache.velocity.runtime.directive.Literal
2015-09-29 19:57:56,568 - Loaded System Directive: org.apache.velocity.runtime.directive.Macro
2015-09-29 19:57:56,570 - Loaded System Directive: org.apache.velocity.runtime.directive.Parse
2015-09-29 19:57:56,572 - Loaded System Directive: org.apache.velocity.runtime.directive.Include
2015-09-29 19:57:56,572 - Loaded System Directive: org.apache.velocity.runtime.directive.Foreach
2015-09-29 19:57:56,596 - Created: 20 parsers.
2015-09-29 19:57:56,601 - Velocimacro : initialization starting.
2015-09-29 19:57:56,601 - Velocimacro : allowInline = true : VMs can be defined inline in templates
2015-09-29 19:57:56,601 - Velocimacro : allowInlineToOverride = false : VMs defined inline may NOT replace previous VM definitions
2015-09-29 19:57:56,601 - Velocimacro : allowInlineLocal = false : VMs defined inline will be  global in scope if allowed.
2015-09-29 19:57:56,601 - Velocimacro : messages on  : VM system will output logging messages
2015-09-29 19:57:56,601 - Velocimacro : autoload off  : VM system will not automatically reload global library macros
2015-09-29 19:57:56,601 - Velocimacro : initialization complete.
2015-09-29 19:57:56,601 - Velocity successfully started.
2015-09-29 19:57:58,674 - ResourceManager : found ru/ai/ccb/artifactGenerator/genutils/messages/named_script.vm with loader org.apache.velocity.runtime.resource.loader.ClasspathResourceLoader
2015-09-29 19:57:58,747 - ResourceManager : found ru/ai/ccb/artifactGenerator/genutils/messages/NamedMessages.vm with loader org.apache.velocity.runtime.resource.loader.ClasspathResourceLoader
2015-09-29 19:57:58,773 - ResourceManager : found ru/ai/ccb/artifactGenerator/algorithm/algorithm_script.vm with loader org.apache.velocity.runtime.resource.loader.ClasspathResourceLoader
2015-09-29 19:57:58,785 - ResourceManager : found ru/ai/ccb/artifactGenerator/batch/batch_script.vm with loader org.apache.velocity.runtime.resource.loader.ClasspathResourceLoader
2015-09-30 16:44:42,280 - SimpleLog4JLogSystem initialized using logfile 'velocity.log'
2015-09-30 16:44:42,296 - ************************************************************** 
2015-09-30 16:44:42,296 - Starting Jakarta Velocity v1.4
2015-09-30 16:44:42,296 - RuntimeInstance initializing.
2015-09-30 16:44:42,296 - Default Properties File: org\apache\velocity\runtime\defaults\velocity.properties
2015-09-30 16:44:42,296 - Trying to use logger class org.apache.velocity.runtime.log.AvalonLogSystem
2015-09-30 16:44:42,296 - Couldn't find class org.apache.velocity.runtime.log.AvalonLogSystem or necessary supporting classes in classpath. Exception : java.lang.NoClassDefFoundError: org/apache/log/format/Formatter
2015-09-30 16:44:42,296 - Trying to use logger class org.apache.velocity.runtime.log.SimpleLog4JLogSystem
2015-09-30 16:44:42,296 - Using logger class org.apache.velocity.runtime.log.SimpleLog4JLogSystem
2015-09-30 16:44:42,296 - Default ResourceManager initializing. (class org.apache.velocity.runtime.resource.ResourceManagerImpl)
2015-09-30 16:44:42,296 - Resource Loader Instantiated: org.apache.velocity.runtime.resource.loader.ClasspathResourceLoader
2015-09-30 16:44:42,296 - ClasspathResourceLoader : initialization starting.
2015-09-30 16:44:42,296 - ClasspathResourceLoader : initialization complete.
2015-09-30 16:44:42,296 - ResourceCache : initialized. (class org.apache.velocity.runtime.resource.ResourceCacheImpl)
2015-09-30 16:44:42,296 - Default ResourceManager initialization complete.
2015-09-30 16:44:42,296 - Loaded System Directive: org.apache.velocity.runtime.directive.Literal
2015-09-30 16:44:42,296 - Loaded System Directive: org.apache.velocity.runtime.directive.Macro
2015-09-30 16:44:42,311 - Loaded System Directive: org.apache.velocity.runtime.directive.Parse
2015-09-30 16:44:42,311 - Loaded System Directive: org.apache.velocity.runtime.directive.Include
2015-09-30 16:44:42,311 - Loaded System Directive: org.apache.velocity.runtime.directive.Foreach
2015-09-30 16:44:42,342 - Created: 20 parsers.
2015-09-30 16:44:42,342 - Velocimacro : initialization starting.
2015-09-30 16:44:42,342 - Velocimacro : allowInline = true : VMs can be defined inline in templates
2015-09-30 16:44:42,342 - Velocimacro : allowInlineToOverride = false : VMs defined inline may NOT replace previous VM definitions
2015-09-30 16:44:42,342 - Velocimacro : allowInlineLocal = false : VMs defined inline will be  global in scope if allowed.
2015-09-30 16:44:42,342 - Velocimacro : messages on  : VM system will output logging messages
2015-09-30 16:44:42,342 - Velocimacro : autoload off  : VM system will not automatically reload global library macros
2015-09-30 16:44:42,342 - Velocimacro : initialization complete.
2015-09-30 16:44:42,342 - Velocity successfully started.
2015-09-30 16:44:44,341 - ResourceManager : found ru/ai/ccb/artifactGenerator/genutils/messages/named_script.vm with loader org.apache.velocity.runtime.resource.loader.ClasspathResourceLoader
2015-09-30 16:44:44,450 - ResourceManager : found ru/ai/ccb/artifactGenerator/genutils/messages/NamedMessages.vm with loader org.apache.velocity.runtime.resource.loader.ClasspathResourceLoader
2015-09-30 16:44:44,497 - ResourceManager : found ru/ai/ccb/artifactGenerator/algorithm/algorithm_script.vm with loader org.apache.velocity.runtime.resource.loader.ClasspathResourceLoader
2015-09-30 16:44:44,513 - ResourceManager : found ru/ai/ccb/artifactGenerator/batch/batch_script.vm with loader org.apache.velocity.runtime.resource.loader.ClasspathResourceLoader
2015-10-02 18:08:08,426 - SimpleLog4JLogSystem initialized using logfile 'velocity.log'
2015-10-02 18:08:08,442 - ************************************************************** 
2015-10-02 18:08:08,442 - Starting Jakarta Velocity v1.4
2015-10-02 18:08:08,442 - RuntimeInstance initializing.
2015-10-02 18:08:08,442 - Default Properties File: org\apache\velocity\runtime\defaults\velocity.properties
2015-10-02 18:08:08,442 - Trying to use logger class org.apache.velocity.runtime.log.AvalonLogSystem
2015-10-02 18:08:08,442 - Couldn't find class org.apache.velocity.runtime.log.AvalonLogSystem or necessary supporting classes in classpath. Exception : java.lang.NoClassDefFoundError: org/apache/log/format/Formatter
2015-10-02 18:08:08,442 - Trying to use logger class org.apache.velocity.runtime.log.SimpleLog4JLogSystem
2015-10-02 18:08:08,442 - Using logger class org.apache.velocity.runtime.log.SimpleLog4JLogSystem
2015-10-02 18:08:08,442 - Default ResourceManager initializing. (class org.apache.velocity.runtime.resource.ResourceManagerImpl)
2015-10-02 18:08:08,442 - Resource Loader Instantiated: org.apache.velocity.runtime.resource.loader.ClasspathResourceLoader
2015-10-02 18:08:08,442 - ClasspathResourceLoader : initialization starting.
2015-10-02 18:08:08,442 - ClasspathResourceLoader : initialization complete.
2015-10-02 18:08:08,442 - ResourceCache : initialized. (class org.apache.velocity.runtime.resource.ResourceCacheImpl)
2015-10-02 18:08:08,442 - Default ResourceManager initialization complete.
2015-10-02 18:08:08,442 - Loaded System Directive: org.apache.velocity.runtime.directive.Literal
2015-10-02 18:08:08,442 - Loaded System Directive: org.apache.velocity.runtime.directive.Macro
2015-10-02 18:08:08,442 - Loaded System Directive: org.apache.velocity.runtime.directive.Parse
2015-10-02 18:08:08,442 - Loaded System Directive: org.apache.velocity.runtime.directive.Include
2015-10-02 18:08:08,442 - Loaded System Directive: org.apache.velocity.runtime.directive.Foreach
2015-10-02 18:08:08,473 - Created: 20 parsers.
2015-10-02 18:08:08,473 - Velocimacro : initialization starting.
2015-10-02 18:08:08,473 - Velocimacro : allowInline = true : VMs can be defined inline in templates
2015-10-02 18:08:08,473 - Velocimacro : allowInlineToOverride = false : VMs defined inline may NOT replace previous VM definitions
2015-10-02 18:08:08,473 - Velocimacro : allowInlineLocal = false : VMs defined inline will be  global in scope if allowed.
2015-10-02 18:08:08,473 - Velocimacro : messages on  : VM system will output logging messages
2015-10-02 18:08:08,473 - Velocimacro : autoload off  : VM system will not automatically reload global library macros
2015-10-02 18:08:08,473 - Velocimacro : initialization complete.
2015-10-02 18:08:08,473 - Velocity successfully started.
2015-10-02 18:08:10,222 - ResourceManager : found ru/ai/ccb/artifactGenerator/genutils/messages/named_script.vm with loader org.apache.velocity.runtime.resource.loader.ClasspathResourceLoader
2015-10-02 18:08:10,316 - ResourceManager : found ru/ai/ccb/artifactGenerator/genutils/messages/NamedMessages.vm with loader org.apache.velocity.runtime.resource.loader.ClasspathResourceLoader
2015-10-02 18:08:10,332 - ResourceManager : found ru/ai/ccb/artifactGenerator/algorithm/algorithm_script.vm with loader org.apache.velocity.runtime.resource.loader.ClasspathResourceLoader
2015-10-02 18:08:10,347 - ResourceManager : found ru/ai/ccb/artifactGenerator/batch/batch_script.vm with loader org.apache.velocity.runtime.resource.loader.ClasspathResourceLoader
2015-10-05 10:42:50,219 - SimpleLog4JLogSystem initialized using logfile 'velocity.log'
2015-10-05 10:42:50,219 - ************************************************************** 
2015-10-05 10:42:50,219 - Starting Jakarta Velocity v1.4
2015-10-05 10:42:50,219 - RuntimeInstance initializing.
2015-10-05 10:42:50,219 - Default Properties File: org\apache\velocity\runtime\defaults\velocity.properties
2015-10-05 10:42:50,219 - Trying to use logger class org.apache.velocity.runtime.log.AvalonLogSystem
2015-10-05 10:42:50,219 - Couldn't find class org.apache.velocity.runtime.log.AvalonLogSystem or necessary supporting classes in classpath. Exception : java.lang.NoClassDefFoundError: org/apache/log/format/Formatter
2015-10-05 10:42:50,219 - Trying to use logger class org.apache.velocity.runtime.log.SimpleLog4JLogSystem
2015-10-05 10:42:50,219 - Using logger class org.apache.velocity.runtime.log.SimpleLog4JLogSystem
2015-10-05 10:42:50,219 - Default ResourceManager initializing. (class org.apache.velocity.runtime.resource.ResourceManagerImpl)
2015-10-05 10:42:50,219 - Resource Loader Instantiated: org.apache.velocity.runtime.resource.loader.ClasspathResourceLoader
2015-10-05 10:42:50,219 - ClasspathResourceLoader : initialization starting.
2015-10-05 10:42:50,219 - ClasspathResourceLoader : initialization complete.
2015-10-05 10:42:50,219 - ResourceCache : initialized. (class org.apache.velocity.runtime.resource.ResourceCacheImpl)
2015-10-05 10:42:50,219 - Default ResourceManager initialization complete.
2015-10-05 10:42:50,219 - Loaded System Directive: org.apache.velocity.runtime.directive.Literal
2015-10-05 10:42:50,235 - Loaded System Directive: org.apache.velocity.runtime.directive.Macro
2015-10-05 10:42:50,235 - Loaded System Directive: org.apache.velocity.runtime.directive.Parse
2015-10-05 10:42:50,235 - Loaded System Directive: org.apache.velocity.runtime.directive.Include
2015-10-05 10:42:50,235 - Loaded System Directive: org.apache.velocity.runtime.directive.Foreach
2015-10-05 10:42:50,266 - Created: 20 parsers.
2015-10-05 10:42:50,281 - Velocimacro : initialization starting.
2015-10-05 10:42:50,281 - Velocimacro : allowInline = true : VMs can be defined inline in templates
2015-10-05 10:42:50,281 - Velocimacro : allowInlineToOverride = false : VMs defined inline may NOT replace previous VM definitions
2015-10-05 10:42:50,281 - Velocimacro : allowInlineLocal = false : VMs defined inline will be  global in scope if allowed.
2015-10-05 10:42:50,281 - Velocimacro : messages on  : VM system will output logging messages
2015-10-05 10:42:50,281 - Velocimacro : autoload off  : VM system will not automatically reload global library macros
2015-10-05 10:42:50,281 - Velocimacro : initialization complete.
2015-10-05 10:42:50,281 - Velocity successfully started.
2015-10-05 10:42:52,348 - ResourceManager : found ru/ai/ccb/artifactGenerator/genutils/messages/named_script.vm with loader org.apache.velocity.runtime.resource.loader.ClasspathResourceLoader
2015-10-05 10:42:52,426 - ResourceManager : found ru/ai/ccb/artifactGenerator/genutils/messages/NamedMessages.vm with loader org.apache.velocity.runtime.resource.loader.ClasspathResourceLoader
2015-10-05 10:42:52,473 - ResourceManager : found ru/ai/ccb/artifactGenerator/algorithm/algorithm_script.vm with loader org.apache.velocity.runtime.resource.loader.ClasspathResourceLoader
2015-10-05 10:42:52,488 - ResourceManager : found ru/ai/ccb/artifactGenerator/batch/batch_script.vm with loader org.apache.velocity.runtime.resource.loader.ClasspathResourceLoader
2015-10-05 10:46:34,356 - SimpleLog4JLogSystem initialized using logfile 'velocity.log'
2015-10-05 10:46:34,356 - ************************************************************** 
2015-10-05 10:46:34,356 - Starting Jakarta Velocity v1.4
2015-10-05 10:46:34,356 - RuntimeInstance initializing.
2015-10-05 10:46:34,356 - Default Properties File: org\apache\velocity\runtime\defaults\velocity.properties
2015-10-05 10:46:34,356 - Trying to use logger class org.apache.velocity.runtime.log.AvalonLogSystem
2015-10-05 10:46:34,356 - Couldn't find class org.apache.velocity.runtime.log.AvalonLogSystem or necessary supporting classes in classpath. Exception : java.lang.NoClassDefFoundError: org/apache/log/format/Formatter
2015-10-05 10:46:34,356 - Trying to use logger class org.apache.velocity.runtime.log.SimpleLog4JLogSystem
2015-10-05 10:46:34,356 - Using logger class org.apache.velocity.runtime.log.SimpleLog4JLogSystem
2015-10-05 10:46:34,356 - Default ResourceManager initializing. (class org.apache.velocity.runtime.resource.ResourceManagerImpl)
2015-10-05 10:46:34,356 - Resource Loader Instantiated: org.apache.velocity.runtime.resource.loader.ClasspathResourceLoader
2015-10-05 10:46:34,356 - ClasspathResourceLoader : initialization starting.
2015-10-05 10:46:34,356 - ClasspathResourceLoader : initialization complete.
2015-10-05 10:46:34,356 - ResourceCache : initialized. (class org.apache.velocity.runtime.resource.ResourceCacheImpl)
2015-10-05 10:46:34,356 - Default ResourceManager initialization complete.
2015-10-05 10:46:34,372 - Loaded System Directive: org.apache.velocity.runtime.directive.Literal
2015-10-05 10:46:34,372 - Loaded System Directive: org.apache.velocity.runtime.directive.Macro
2015-10-05 10:46:34,372 - Loaded System Directive: org.apache.velocity.runtime.directive.Parse
2015-10-05 10:46:34,372 - Loaded System Directive: org.apache.velocity.runtime.directive.Include
2015-10-05 10:46:34,372 - Loaded System Directive: org.apache.velocity.runtime.directive.Foreach
2015-10-05 10:46:34,403 - Created: 20 parsers.
2015-10-05 10:46:34,403 - Velocimacro : initialization starting.
2015-10-05 10:46:34,403 - Velocimacro : allowInline = true : VMs can be defined inline in templates
2015-10-05 10:46:34,403 - Velocimacro : allowInlineToOverride = false : VMs defined inline may NOT replace previous VM definitions
2015-10-05 10:46:34,403 - Velocimacro : allowInlineLocal = false : VMs defined inline will be  global in scope if allowed.
2015-10-05 10:46:34,403 - Velocimacro : messages on  : VM system will output logging messages
2015-10-05 10:46:34,403 - Velocimacro : autoload off  : VM system will not automatically reload global library macros
2015-10-05 10:46:34,403 - Velocimacro : initialization complete.
2015-10-05 10:46:34,403 - Velocity successfully started.
2015-10-05 10:46:36,402 - ResourceManager : found ru/ai/ccb/artifactGenerator/genutils/messages/named_script.vm with loader org.apache.velocity.runtime.resource.loader.ClasspathResourceLoader
2015-10-05 10:46:36,464 - ResourceManager : found ru/ai/ccb/artifactGenerator/genutils/messages/NamedMessages.vm with loader org.apache.velocity.runtime.resource.loader.ClasspathResourceLoader
2015-10-05 10:46:36,496 - ResourceManager : found ru/ai/ccb/artifactGenerator/algorithm/algorithm_script.vm with loader org.apache.velocity.runtime.resource.loader.ClasspathResourceLoader
2015-10-05 10:46:36,511 - ResourceManager : found ru/ai/ccb/artifactGenerator/batch/batch_script.vm with loader org.apache.velocity.runtime.resource.loader.ClasspathResourceLoader
2015-10-08 15:30:08,198 - SimpleLog4JLogSystem initialized using logfile 'velocity.log'
2015-10-08 15:30:08,214 - ************************************************************** 
2015-10-08 15:30:08,214 - Starting Jakarta Velocity v1.4
2015-10-08 15:30:08,214 - RuntimeInstance initializing.
2015-10-08 15:30:08,214 - Default Properties File: org\apache\velocity\runtime\defaults\velocity.properties
2015-10-08 15:30:08,214 - Trying to use logger class org.apache.velocity.runtime.log.AvalonLogSystem
2015-10-08 15:30:08,214 - Couldn't find class org.apache.velocity.runtime.log.AvalonLogSystem or necessary supporting classes in classpath. Exception : java.lang.NoClassDefFoundError: org/apache/log/format/Formatter
2015-10-08 15:30:08,214 - Trying to use logger class org.apache.velocity.runtime.log.SimpleLog4JLogSystem
2015-10-08 15:30:08,214 - Using logger class org.apache.velocity.runtime.log.SimpleLog4JLogSystem
2015-10-08 15:30:08,214 - Default ResourceManager initializing. (class org.apache.velocity.runtime.resource.ResourceManagerImpl)
2015-10-08 15:30:08,214 - Resource Loader Instantiated: org.apache.velocity.runtime.resource.loader.ClasspathResourceLoader
2015-10-08 15:30:08,214 - ClasspathResourceLoader : initialization starting.
2015-10-08 15:30:08,214 - ClasspathResourceLoader : initialization complete.
2015-10-08 15:30:08,214 - ResourceCache : initialized. (class org.apache.velocity.runtime.resource.ResourceCacheImpl)
2015-10-08 15:30:08,214 - Default ResourceManager initialization complete.
2015-10-08 15:30:08,214 - Loaded System Directive: org.apache.velocity.runtime.directive.Literal
2015-10-08 15:30:08,214 - Loaded System Directive: org.apache.velocity.runtime.directive.Macro
2015-10-08 15:30:08,214 - Loaded System Directive: org.apache.velocity.runtime.directive.Parse
2015-10-08 15:30:08,229 - Loaded System Directive: org.apache.velocity.runtime.directive.Include
2015-10-08 15:30:08,229 - Loaded System Directive: org.apache.velocity.runtime.directive.Foreach
2015-10-08 15:30:08,245 - Created: 20 parsers.
2015-10-08 15:30:08,261 - Velocimacro : initialization starting.
2015-10-08 15:30:08,261 - Velocimacro : allowInline = true : VMs can be defined inline in templates
2015-10-08 15:30:08,261 - Velocimacro : allowInlineToOverride = false : VMs defined inline may NOT replace previous VM definitions
2015-10-08 15:30:08,261 - Velocimacro : allowInlineLocal = false : VMs defined inline will be  global in scope if allowed.
2015-10-08 15:30:08,261 - Velocimacro : messages on  : VM system will output logging messages
2015-10-08 15:30:08,261 - Velocimacro : autoload off  : VM system will not automatically reload global library macros
2015-10-08 15:30:08,261 - Velocimacro : initialization complete.
2015-10-08 15:30:08,261 - Velocity successfully started.
2015-10-08 15:30:12,568 - ResourceManager : found ru/ai/ccb/artifactGenerator/genutils/messages/named_script.vm with loader org.apache.velocity.runtime.resource.loader.ClasspathResourceLoader
2015-10-08 15:30:12,646 - ResourceManager : found ru/ai/ccb/artifactGenerator/genutils/messages/NamedMessages.vm with loader org.apache.velocity.runtime.resource.loader.ClasspathResourceLoader
2015-10-08 15:30:12,662 - ResourceManager : found ru/ai/ccb/artifactGenerator/algorithm/algorithm_script.vm with loader org.apache.velocity.runtime.resource.loader.ClasspathResourceLoader
2015-10-08 15:30:12,677 - ResourceManager : found ru/ai/ccb/artifactGenerator/batch/batch_script.vm with loader org.apache.velocity.runtime.resource.loader.ClasspathResourceLoader
2015-10-14 01:35:17,764 - SimpleLog4JLogSystem initialized using logfile 'velocity.log'
2015-10-14 01:35:17,764 - ************************************************************** 
2015-10-14 01:35:17,764 - Starting Jakarta Velocity v1.4
2015-10-14 01:35:17,764 - RuntimeInstance initializing.
2015-10-14 01:35:17,764 - Default Properties File: org\apache\velocity\runtime\defaults\velocity.properties
2015-10-14 01:35:17,764 - Trying to use logger class org.apache.velocity.runtime.log.AvalonLogSystem
2015-10-14 01:35:17,764 - Couldn't find class org.apache.velocity.runtime.log.AvalonLogSystem or necessary supporting classes in classpath. Exception : java.lang.NoClassDefFoundError: org/apache/log/format/Formatter
2015-10-14 01:35:17,764 - Trying to use logger class org.apache.velocity.runtime.log.SimpleLog4JLogSystem
2015-10-14 01:35:17,764 - Using logger class org.apache.velocity.runtime.log.SimpleLog4JLogSystem
2015-10-14 01:35:17,780 - Default ResourceManager initializing. (class org.apache.velocity.runtime.resource.ResourceManagerImpl)
2015-10-14 01:35:17,780 - Resource Loader Instantiated: org.apache.velocity.runtime.resource.loader.ClasspathResourceLoader
2015-10-14 01:35:17,780 - ClasspathResourceLoader : initialization starting.
2015-10-14 01:35:17,780 - ClasspathResourceLoader : initialization complete.
2015-10-14 01:35:17,780 - ResourceCache : initialized. (class org.apache.velocity.runtime.resource.ResourceCacheImpl)
2015-10-14 01:35:17,780 - Default ResourceManager initialization complete.
2015-10-14 01:35:17,780 - Loaded System Directive: org.apache.velocity.runtime.directive.Literal
2015-10-14 01:35:17,780 - Loaded System Directive: org.apache.velocity.runtime.directive.Macro
2015-10-14 01:35:17,780 - Loaded System Directive: org.apache.velocity.runtime.directive.Parse
2015-10-14 01:35:17,780 - Loaded System Directive: org.apache.velocity.runtime.directive.Include
2015-10-14 01:35:17,780 - Loaded System Directive: org.apache.velocity.runtime.directive.Foreach
2015-10-14 01:35:17,811 - Created: 20 parsers.
2015-10-14 01:35:17,811 - Velocimacro : initialization starting.
2015-10-14 01:35:17,811 - Velocimacro : allowInline = true : VMs can be defined inline in templates
2015-10-14 01:35:17,811 - Velocimacro : allowInlineToOverride = false : VMs defined inline may NOT replace previous VM definitions
2015-10-14 01:35:17,811 - Velocimacro : allowInlineLocal = false : VMs defined inline will be  global in scope if allowed.
2015-10-14 01:35:17,811 - Velocimacro : messages on  : VM system will output logging messages
2015-10-14 01:35:17,811 - Velocimacro : autoload off  : VM system will not automatically reload global library macros
2015-10-14 01:35:17,811 - Velocimacro : initialization complete.
2015-10-14 01:35:17,811 - Velocity successfully started.
2015-10-14 01:35:19,858 - ResourceManager : found ru/ai/ccb/artifactGenerator/genutils/messages/named_script.vm with loader org.apache.velocity.runtime.resource.loader.ClasspathResourceLoader
2015-10-14 01:35:19,936 - ResourceManager : found ru/ai/ccb/artifactGenerator/genutils/messages/NamedMessages.vm with loader org.apache.velocity.runtime.resource.loader.ClasspathResourceLoader
2015-10-14 01:35:19,951 - ResourceManager : found ru/ai/ccb/artifactGenerator/algorithm/algorithm_script.vm with loader org.apache.velocity.runtime.resource.loader.ClasspathResourceLoader
2015-10-14 01:35:19,967 - ResourceManager : found ru/ai/ccb/artifactGenerator/batch/batch_script.vm with loader org.apache.velocity.runtime.resource.loader.ClasspathResourceLoader
2015-10-14 01:35:53,377 - SimpleLog4JLogSystem initialized using logfile 'velocity.log'
2015-10-14 01:35:53,377 - ************************************************************** 
2015-10-14 01:35:53,377 - Starting Jakarta Velocity v1.4
2015-10-14 01:35:53,377 - RuntimeInstance initializing.
2015-10-14 01:35:53,377 - Default Properties File: org\apache\velocity\runtime\defaults\velocity.properties
2015-10-14 01:35:53,377 - Trying to use logger class org.apache.velocity.runtime.log.AvalonLogSystem
2015-10-14 01:35:53,377 - Couldn't find class org.apache.velocity.runtime.log.AvalonLogSystem or necessary supporting classes in classpath. Exception : java.lang.NoClassDefFoundError: org/apache/log/format/Formatter
2015-10-14 01:35:53,377 - Trying to use logger class org.apache.velocity.runtime.log.SimpleLog4JLogSystem
2015-10-14 01:35:53,377 - Using logger class org.apache.velocity.runtime.log.SimpleLog4JLogSystem
2015-10-14 01:35:53,377 - Default ResourceManager initializing. (class org.apache.velocity.runtime.resource.ResourceManagerImpl)
2015-10-14 01:35:53,377 - Resource Loader Instantiated: org.apache.velocity.runtime.resource.loader.ClasspathResourceLoader
2015-10-14 01:35:53,377 - ClasspathResourceLoader : initialization starting.
2015-10-14 01:35:53,377 - ClasspathResourceLoader : initialization complete.
2015-10-14 01:35:53,377 - ResourceCache : initialized. (class org.apache.velocity.runtime.resource.ResourceCacheImpl)
2015-10-14 01:35:53,377 - Default ResourceManager initialization complete.
2015-10-14 01:35:53,377 - Loaded System Directive: org.apache.velocity.runtime.directive.Literal
2015-10-14 01:35:53,377 - Loaded System Directive: org.apache.velocity.runtime.directive.Macro
2015-10-14 01:35:53,377 - Loaded System Directive: org.apache.velocity.runtime.directive.Parse
2015-10-14 01:35:53,377 - Loaded System Directive: org.apache.velocity.runtime.directive.Include
2015-10-14 01:35:53,377 - Loaded System Directive: org.apache.velocity.runtime.directive.Foreach
2015-10-14 01:35:53,409 - Created: 20 parsers.
2015-10-14 01:35:53,409 - Velocimacro : initialization starting.
2015-10-14 01:35:53,409 - Velocimacro : allowInline = true : VMs can be defined inline in templates
2015-10-14 01:35:53,409 - Velocimacro : allowInlineToOverride = false : VMs defined inline may NOT replace previous VM definitions
2015-10-14 01:35:53,409 - Velocimacro : allowInlineLocal = false : VMs defined inline will be  global in scope if allowed.
2015-10-14 01:35:53,409 - Velocimacro : messages on  : VM system will output logging messages
2015-10-14 01:35:53,424 - Velocimacro : autoload off  : VM system will not automatically reload global library macros
2015-10-14 01:35:53,424 - Velocimacro : initialization complete.
2015-10-14 01:35:53,424 - Velocity successfully started.
2015-10-14 01:35:55,377 - ResourceManager : found ru/ai/ccb/artifactGenerator/genutils/messages/named_script.vm with loader org.apache.velocity.runtime.resource.loader.ClasspathResourceLoader
2015-10-14 01:35:55,440 - ResourceManager : found ru/ai/ccb/artifactGenerator/genutils/messages/NamedMessages.vm with loader org.apache.velocity.runtime.resource.loader.ClasspathResourceLoader
2015-10-14 01:35:55,471 - ResourceManager : found ru/ai/ccb/artifactGenerator/algorithm/algorithm_script.vm with loader org.apache.velocity.runtime.resource.loader.ClasspathResourceLoader
2015-10-14 01:35:55,471 - ResourceManager : found ru/ai/ccb/artifactGenerator/batch/batch_script.vm with loader org.apache.velocity.runtime.resource.loader.ClasspathResourceLoader
2015-10-15 17:32:38,348 - SimpleLog4JLogSystem initialized using logfile 'velocity.log'
2015-10-15 17:32:38,348 - ************************************************************** 
2015-10-15 17:32:38,348 - Starting Jakarta Velocity v1.4
2015-10-15 17:32:38,348 - RuntimeInstance initializing.
2015-10-15 17:32:38,348 - Default Properties File: org\apache\velocity\runtime\defaults\velocity.properties
2015-10-15 17:32:38,348 - Trying to use logger class org.apache.velocity.runtime.log.AvalonLogSystem
2015-10-15 17:32:38,348 - Couldn't find class org.apache.velocity.runtime.log.AvalonLogSystem or necessary supporting classes in classpath. Exception : java.lang.NoClassDefFoundError: org/apache/log/format/Formatter
2015-10-15 17:32:38,348 - Trying to use logger class org.apache.velocity.runtime.log.SimpleLog4JLogSystem
2015-10-15 17:32:38,348 - Using logger class org.apache.velocity.runtime.log.SimpleLog4JLogSystem
2015-10-15 17:32:38,348 - Default ResourceManager initializing. (class org.apache.velocity.runtime.resource.ResourceManagerImpl)
2015-10-15 17:32:38,348 - Resource Loader Instantiated: org.apache.velocity.runtime.resource.loader.ClasspathResourceLoader
2015-10-15 17:32:38,348 - ClasspathResourceLoader : initialization starting.
2015-10-15 17:32:38,348 - ClasspathResourceLoader : initialization complete.
2015-10-15 17:32:38,348 - ResourceCache : initialized. (class org.apache.velocity.runtime.resource.ResourceCacheImpl)
2015-10-15 17:32:38,348 - Default ResourceManager initialization complete.
2015-10-15 17:32:38,348 - Loaded System Directive: org.apache.velocity.runtime.directive.Literal
2015-10-15 17:32:38,348 - Loaded System Directive: org.apache.velocity.runtime.directive.Macro
2015-10-15 17:32:38,348 - Loaded System Directive: org.apache.velocity.runtime.directive.Parse
2015-10-15 17:32:38,348 - Loaded System Directive: org.apache.velocity.runtime.directive.Include
2015-10-15 17:32:38,363 - Loaded System Directive: org.apache.velocity.runtime.directive.Foreach
2015-10-15 17:32:38,379 - Created: 20 parsers.
2015-10-15 17:32:38,395 - Velocimacro : initialization starting.
2015-10-15 17:32:38,395 - Velocimacro : allowInline = true : VMs can be defined inline in templates
2015-10-15 17:32:38,395 - Velocimacro : allowInlineToOverride = false : VMs defined inline may NOT replace previous VM definitions
2015-10-15 17:32:38,395 - Velocimacro : allowInlineLocal = false : VMs defined inline will be  global in scope if allowed.
2015-10-15 17:32:38,395 - Velocimacro : messages on  : VM system will output logging messages
2015-10-15 17:32:38,395 - Velocimacro : autoload off  : VM system will not automatically reload global library macros
2015-10-15 17:32:38,395 - Velocimacro : initialization complete.
2015-10-15 17:32:38,395 - Velocity successfully started.
2015-10-15 17:32:40,709 - ResourceManager : found ru/ai/ccb/artifactGenerator/genutils/messages/named_script.vm with loader org.apache.velocity.runtime.resource.loader.ClasspathResourceLoader
2015-10-15 17:32:40,818 - ResourceManager : found ru/ai/ccb/artifactGenerator/genutils/messages/NamedMessages.vm with loader org.apache.velocity.runtime.resource.loader.ClasspathResourceLoader
2015-10-15 17:32:40,849 - ResourceManager : found ru/ai/ccb/artifactGenerator/algorithm/algorithm_script.vm with loader org.apache.velocity.runtime.resource.loader.ClasspathResourceLoader
2015-10-15 17:32:40,865 - ResourceManager : found ru/ai/ccb/artifactGenerator/batch/batch_script.vm with loader org.apache.velocity.runtime.resource.loader.ClasspathResourceLoader
2015-12-04 17:06:43,711 - SimpleLog4JLogSystem initialized using logfile 'velocity.log'
2015-12-04 17:06:43,712 - ************************************************************** 
2015-12-04 17:06:43,712 - Starting Jakarta Velocity v1.4
2015-12-04 17:06:43,712 - RuntimeInstance initializing.
2015-12-04 17:06:43,712 - Default Properties File: org\apache\velocity\runtime\defaults\velocity.properties
2015-12-04 17:06:43,712 - Trying to use logger class org.apache.velocity.runtime.log.AvalonLogSystem
2015-12-04 17:06:43,712 - Couldn't find class org.apache.velocity.runtime.log.AvalonLogSystem or necessary supporting classes in classpath. Exception : java.lang.NoClassDefFoundError: org/apache/log/format/Formatter
2015-12-04 17:06:43,712 - Trying to use logger class org.apache.velocity.runtime.log.SimpleLog4JLogSystem
2015-12-04 17:06:43,712 - Using logger class org.apache.velocity.runtime.log.SimpleLog4JLogSystem
2015-12-04 17:06:43,715 - Default ResourceManager initializing. (class org.apache.velocity.runtime.resource.ResourceManagerImpl)
2015-12-04 17:06:43,717 - Resource Loader Instantiated: org.apache.velocity.runtime.resource.loader.ClasspathResourceLoader
2015-12-04 17:06:43,717 - ClasspathResourceLoader : initialization starting.
2015-12-04 17:06:43,717 - ClasspathResourceLoader : initialization complete.
2015-12-04 17:06:43,718 - ResourceCache : initialized. (class org.apache.velocity.runtime.resource.ResourceCacheImpl)
2015-12-04 17:06:43,718 - Default ResourceManager initialization complete.
2015-12-04 17:06:43,719 - Loaded System Directive: org.apache.velocity.runtime.directive.Literal
2015-12-04 17:06:43,721 - Loaded System Directive: org.apache.velocity.runtime.directive.Macro
2015-12-04 17:06:43,722 - Loaded System Directive: org.apache.velocity.runtime.directive.Parse
2015-12-04 17:06:43,724 - Loaded System Directive: org.apache.velocity.runtime.directive.Include
2015-12-04 17:06:43,724 - Loaded System Directive: org.apache.velocity.runtime.directive.Foreach
2015-12-04 17:06:43,748 - Created: 20 parsers.
2015-12-04 17:06:43,752 - Velocimacro : initialization starting.
2015-12-04 17:06:43,752 - Velocimacro : allowInline = true : VMs can be defined inline in templates
2015-12-04 17:06:43,752 - Velocimacro : allowInlineToOverride = false : VMs defined inline may NOT replace previous VM definitions
2015-12-04 17:06:43,753 - Velocimacro : allowInlineLocal = false : VMs defined inline will be  global in scope if allowed.
2015-12-04 17:06:43,753 - Velocimacro : messages on  : VM system will output logging messages
2015-12-04 17:06:43,753 - Velocimacro : autoload off  : VM system will not automatically reload global library macros
2015-12-04 17:06:43,753 - Velocimacro : initialization complete.
2015-12-04 17:06:43,753 - Velocity successfully started.
2015-12-04 17:06:45,667 - ResourceManager : found ru/ai/ccb/artifactGenerator/genutils/messages/named_script.vm with loader org.apache.velocity.runtime.resource.loader.ClasspathResourceLoader
2015-12-04 17:06:45,739 - ResourceManager : found ru/ai/ccb/artifactGenerator/genutils/messages/NamedMessages.vm with loader org.apache.velocity.runtime.resource.loader.ClasspathResourceLoader
2015-12-04 17:06:45,759 - ResourceManager : found ru/ai/ccb/artifactGenerator/algorithm/algorithm_script.vm with loader org.apache.velocity.runtime.resource.loader.ClasspathResourceLoader
2015-12-04 17:06:45,770 - ResourceManager : found ru/ai/ccb/artifactGenerator/batch/batch_script.vm with loader org.apache.velocity.runtime.resource.loader.ClasspathResourceLoader
2016-11-11 18:22:49,775 - SimpleLog4JLogSystem initialized using logfile 'velocity.log'
2016-11-11 18:22:49,775 - ************************************************************** 
2016-11-11 18:22:49,775 - Starting Jakarta Velocity v1.4
2016-11-11 18:22:49,775 - RuntimeInstance initializing.
2016-11-11 18:22:49,775 - Default Properties File: org\apache\velocity\runtime\defaults\velocity.properties
2016-11-11 18:22:49,775 - Trying to use logger class org.apache.velocity.runtime.log.AvalonLogSystem
2016-11-11 18:22:49,775 - Couldn't find class org.apache.velocity.runtime.log.AvalonLogSystem or necessary supporting classes in classpath. Exception : java.lang.NoClassDefFoundError: org/apache/log/format/Formatter
2016-11-11 18:22:49,775 - Trying to use logger class org.apache.velocity.runtime.log.SimpleLog4JLogSystem
2016-11-11 18:22:49,775 - Using logger class org.apache.velocity.runtime.log.SimpleLog4JLogSystem
2016-11-11 18:22:49,775 - Default ResourceManager initializing. (class org.apache.velocity.runtime.resource.ResourceManagerImpl)
2016-11-11 18:22:49,775 - Resource Loader Instantiated: org.apache.velocity.runtime.resource.loader.ClasspathResourceLoader
2016-11-11 18:22:49,775 - ClasspathResourceLoader : initialization starting.
2016-11-11 18:22:49,775 - ClasspathResourceLoader : initialization complete.
2016-11-11 18:22:49,775 - ResourceCache : initialized. (class org.apache.velocity.runtime.resource.ResourceCacheImpl)
2016-11-11 18:22:49,775 - Default ResourceManager initialization complete.
2016-11-11 18:22:49,775 - Loaded System Directive: org.apache.velocity.runtime.directive.Literal
2016-11-11 18:22:49,790 - Loaded System Directive: org.apache.velocity.runtime.directive.Macro
2016-11-11 18:22:49,790 - Loaded System Directive: org.apache.velocity.runtime.directive.Parse
2016-11-11 18:22:49,790 - Loaded System Directive: org.apache.velocity.runtime.directive.Include
2016-11-11 18:22:49,790 - Loaded System Directive: org.apache.velocity.runtime.directive.Foreach
2016-11-11 18:22:49,931 - Created: 20 parsers.
2016-11-11 18:22:49,946 - Velocimacro : initialization starting.
2016-11-11 18:22:49,946 - Velocimacro : allowInline = true : VMs can be defined inline in templates
2016-11-11 18:22:49,946 - Velocimacro : allowInlineToOverride = false : VMs defined inline may NOT replace previous VM definitions
2016-11-11 18:22:49,946 - Velocimacro : allowInlineLocal = false : VMs defined inline will be  global in scope if allowed.
2016-11-11 18:22:49,946 - Velocimacro : messages on  : VM system will output logging messages
2016-11-11 18:22:49,946 - Velocimacro : autoload off  : VM system will not automatically reload global library macros
2016-11-11 18:22:49,946 - Velocimacro : initialization complete.
2016-11-11 18:22:49,946 - Velocity successfully started.
2016-11-11 18:22:53,818 - ResourceManager : found ru/ai/ccb/artifactGenerator/genutils/messages/named_script.vm with loader org.apache.velocity.runtime.resource.loader.ClasspathResourceLoader
2016-11-11 18:22:53,911 - ResourceManager : found ru/ai/ccb/artifactGenerator/genutils/messages/NamedMessages.vm with loader org.apache.velocity.runtime.resource.loader.ClasspathResourceLoader
2016-11-11 18:22:53,927 - ResourceManager : found ru/ai/ccb/artifactGenerator/algorithm/algorithm_script.vm with loader org.apache.velocity.runtime.resource.loader.ClasspathResourceLoader
2016-11-11 18:22:53,927 - ResourceManager : found ru/ai/ccb/artifactGenerator/batch/batch_script.vm with loader org.apache.velocity.runtime.resource.loader.ClasspathResourceLoader
2016-11-11 18:27:42,142 - SimpleLog4JLogSystem initialized using logfile 'velocity.log'
2016-11-11 18:27:42,142 - ************************************************************** 
2016-11-11 18:27:42,142 - Starting Jakarta Velocity v1.4
2016-11-11 18:27:42,142 - RuntimeInstance initializing.
2016-11-11 18:27:42,142 - Default Properties File: org\apache\velocity\runtime\defaults\velocity.properties
2016-11-11 18:27:42,142 - Trying to use logger class org.apache.velocity.runtime.log.AvalonLogSystem
2016-11-11 18:27:42,142 - Couldn't find class org.apache.velocity.runtime.log.AvalonLogSystem or necessary supporting classes in classpath. Exception : java.lang.NoClassDefFoundError: org/apache/log/format/Formatter
2016-11-11 18:27:42,142 - Trying to use logger class org.apache.velocity.runtime.log.SimpleLog4JLogSystem
2016-11-11 18:27:42,142 - Using logger class org.apache.velocity.runtime.log.SimpleLog4JLogSystem
2016-11-11 18:27:42,142 - Default ResourceManager initializing. (class org.apache.velocity.runtime.resource.ResourceManagerImpl)
2016-11-11 18:27:42,142 - Resource Loader Instantiated: org.apache.velocity.runtime.resource.loader.ClasspathResourceLoader
2016-11-11 18:27:42,142 - ClasspathResourceLoader : initialization starting.
2016-11-11 18:27:42,142 - ClasspathResourceLoader : initialization complete.
2016-11-11 18:27:42,142 - ResourceCache : initialized. (class org.apache.velocity.runtime.resource.ResourceCacheImpl)
2016-11-11 18:27:42,142 - Default ResourceManager initialization complete.
2016-11-11 18:27:42,142 - Loaded System Directive: org.apache.velocity.runtime.directive.Literal
2016-11-11 18:27:42,142 - Loaded System Directive: org.apache.velocity.runtime.directive.Macro
2016-11-11 18:27:42,158 - Loaded System Directive: org.apache.velocity.runtime.directive.Parse
2016-11-11 18:27:42,158 - Loaded System Directive: org.apache.velocity.runtime.directive.Include
2016-11-11 18:27:42,158 - Loaded System Directive: org.apache.velocity.runtime.directive.Foreach
2016-11-11 18:27:42,173 - Created: 20 parsers.
2016-11-11 18:27:42,189 - Velocimacro : initialization starting.
2016-11-11 18:27:42,189 - Velocimacro : allowInline = true : VMs can be defined inline in templates
2016-11-11 18:27:42,189 - Velocimacro : allowInlineToOverride = false : VMs defined inline may NOT replace previous VM definitions
2016-11-11 18:27:42,189 - Velocimacro : allowInlineLocal = false : VMs defined inline will be  global in scope if allowed.
2016-11-11 18:27:42,189 - Velocimacro : messages on  : VM system will output logging messages
2016-11-11 18:27:42,189 - Velocimacro : autoload off  : VM system will not automatically reload global library macros
2016-11-11 18:27:42,189 - Velocimacro : initialization complete.
2016-11-11 18:27:42,189 - Velocity successfully started.
2016-11-11 18:27:44,062 - ResourceManager : found ru/ai/ccb/artifactGenerator/genutils/messages/named_script.vm with loader org.apache.velocity.runtime.resource.loader.ClasspathResourceLoader
2016-11-11 18:27:44,124 - ResourceManager : found ru/ai/ccb/artifactGenerator/genutils/messages/NamedMessages.vm with loader org.apache.velocity.runtime.resource.loader.ClasspathResourceLoader
2016-11-11 18:27:44,140 - ResourceManager : found ru/ai/ccb/artifactGenerator/algorithm/algorithm_script.vm with loader org.apache.velocity.runtime.resource.loader.ClasspathResourceLoader
2016-11-11 18:27:44,155 - ResourceManager : found ru/ai/ccb/artifactGenerator/batch/batch_script.vm with loader org.apache.velocity.runtime.resource.loader.ClasspathResourceLoader
2016-11-11 20:41:28,180 - SimpleLog4JLogSystem initialized using logfile 'velocity.log'
2016-11-11 20:41:28,180 - ************************************************************** 
2016-11-11 20:41:28,180 - Starting Jakarta Velocity v1.4
2016-11-11 20:41:28,180 - RuntimeInstance initializing.
2016-11-11 20:41:28,180 - Default Properties File: org\apache\velocity\runtime\defaults\velocity.properties
2016-11-11 20:41:28,180 - Trying to use logger class org.apache.velocity.runtime.log.AvalonLogSystem
2016-11-11 20:41:28,180 - Couldn't find class org.apache.velocity.runtime.log.AvalonLogSystem or necessary supporting classes in classpath. Exception : java.lang.NoClassDefFoundError: org/apache/log/format/Formatter
2016-11-11 20:41:28,180 - Trying to use logger class org.apache.velocity.runtime.log.SimpleLog4JLogSystem
2016-11-11 20:41:28,180 - Using logger class org.apache.velocity.runtime.log.SimpleLog4JLogSystem
2016-11-11 20:41:28,180 - Default ResourceManager initializing. (class org.apache.velocity.runtime.resource.ResourceManagerImpl)
2016-11-11 20:41:28,180 - Resource Loader Instantiated: org.apache.velocity.runtime.resource.loader.ClasspathResourceLoader
2016-11-11 20:41:28,180 - ClasspathResourceLoader : initialization starting.
2016-11-11 20:41:28,180 - ClasspathResourceLoader : initialization complete.
2016-11-11 20:41:28,180 - ResourceCache : initialized. (class org.apache.velocity.runtime.resource.ResourceCacheImpl)
2016-11-11 20:41:28,180 - Default ResourceManager initialization complete.
2016-11-11 20:41:28,180 - Loaded System Directive: org.apache.velocity.runtime.directive.Literal
2016-11-11 20:41:28,180 - Loaded System Directive: org.apache.velocity.runtime.directive.Macro
2016-11-11 20:41:28,180 - Loaded System Directive: org.apache.velocity.runtime.directive.Parse
2016-11-11 20:41:28,180 - Loaded System Directive: org.apache.velocity.runtime.directive.Include
2016-11-11 20:41:28,180 - Loaded System Directive: org.apache.velocity.runtime.directive.Foreach
2016-11-11 20:41:28,211 - Created: 20 parsers.
2016-11-11 20:41:28,211 - Velocimacro : initialization starting.
2016-11-11 20:41:28,211 - Velocimacro : allowInline = true : VMs can be defined inline in templates
2016-11-11 20:41:28,211 - Velocimacro : allowInlineToOverride = false : VMs defined inline may NOT replace previous VM definitions
2016-11-11 20:41:28,211 - Velocimacro : allowInlineLocal = false : VMs defined inline will be  global in scope if allowed.
2016-11-11 20:41:28,211 - Velocimacro : messages on  : VM system will output logging messages
2016-11-11 20:41:28,211 - Velocimacro : autoload off  : VM system will not automatically reload global library macros
2016-11-11 20:41:28,211 - Velocimacro : initialization complete.
2016-11-11 20:41:28,211 - Velocity successfully started.
2016-11-11 20:41:30,086 - ResourceManager : found ru/ai/ccb/artifactGenerator/genutils/messages/named_script.vm with loader org.apache.velocity.runtime.resource.loader.ClasspathResourceLoader
2016-11-11 20:41:30,149 - ResourceManager : found ru/ai/ccb/artifactGenerator/genutils/messages/NamedMessages.vm with loader org.apache.velocity.runtime.resource.loader.ClasspathResourceLoader
2016-11-11 20:41:30,164 - ResourceManager : found ru/ai/ccb/artifactGenerator/algorithm/algorithm_script.vm with loader org.apache.velocity.runtime.resource.loader.ClasspathResourceLoader
2016-11-11 20:41:30,180 - ResourceManager : found ru/ai/ccb/artifactGenerator/batch/batch_script.vm with loader org.apache.velocity.runtime.resource.loader.ClasspathResourceLoader
2016-11-11 20:49:56,085 - SimpleLog4JLogSystem initialized using logfile 'velocity.log'
2016-11-11 20:49:56,085 - ************************************************************** 
2016-11-11 20:49:56,085 - Starting Jakarta Velocity v1.4
2016-11-11 20:49:56,085 - RuntimeInstance initializing.
2016-11-11 20:49:56,085 - Default Properties File: org\apache\velocity\runtime\defaults\velocity.properties
2016-11-11 20:49:56,085 - Trying to use logger class org.apache.velocity.runtime.log.AvalonLogSystem
2016-11-11 20:49:56,085 - Couldn't find class org.apache.velocity.runtime.log.AvalonLogSystem or necessary supporting classes in classpath. Exception : java.lang.NoClassDefFoundError: org/apache/log/format/Formatter
2016-11-11 20:49:56,085 - Trying to use logger class org.apache.velocity.runtime.log.SimpleLog4JLogSystem
2016-11-11 20:49:56,085 - Using logger class org.apache.velocity.runtime.log.SimpleLog4JLogSystem
2016-11-11 20:49:56,085 - Default ResourceManager initializing. (class org.apache.velocity.runtime.resource.ResourceManagerImpl)
2016-11-11 20:49:56,085 - Resource Loader Instantiated: org.apache.velocity.runtime.resource.loader.ClasspathResourceLoader
2016-11-11 20:49:56,085 - ClasspathResourceLoader : initialization starting.
2016-11-11 20:49:56,085 - ClasspathResourceLoader : initialization complete.
2016-11-11 20:49:56,085 - ResourceCache : initialized. (class org.apache.velocity.runtime.resource.ResourceCacheImpl)
2016-11-11 20:49:56,085 - Default ResourceManager initialization complete.
2016-11-11 20:49:56,085 - Loaded System Directive: org.apache.velocity.runtime.directive.Literal
2016-11-11 20:49:56,085 - Loaded System Directive: org.apache.velocity.runtime.directive.Macro
2016-11-11 20:49:56,085 - Loaded System Directive: org.apache.velocity.runtime.directive.Parse
2016-11-11 20:49:56,085 - Loaded System Directive: org.apache.velocity.runtime.directive.Include
2016-11-11 20:49:56,085 - Loaded System Directive: org.apache.velocity.runtime.directive.Foreach
2016-11-11 20:49:56,117 - Created: 20 parsers.
2016-11-11 20:49:56,117 - Velocimacro : initialization starting.
2016-11-11 20:49:56,117 - Velocimacro : allowInline = true : VMs can be defined inline in templates
2016-11-11 20:49:56,117 - Velocimacro : allowInlineToOverride = false : VMs defined inline may NOT replace previous VM definitions
2016-11-11 20:49:56,117 - Velocimacro : allowInlineLocal = false : VMs defined inline will be  global in scope if allowed.
2016-11-11 20:49:56,117 - Velocimacro : messages on  : VM system will output logging messages
2016-11-11 20:49:56,117 - Velocimacro : autoload off  : VM system will not automatically reload global library macros
2016-11-11 20:49:56,117 - Velocimacro : initialization complete.
2016-11-11 20:49:56,117 - Velocity successfully started.
2016-11-11 20:49:58,038 - ResourceManager : found ru/ai/ccb/artifactGenerator/genutils/messages/named_script.vm with loader org.apache.velocity.runtime.resource.loader.ClasspathResourceLoader
2016-11-11 20:49:58,100 - ResourceManager : found ru/ai/ccb/artifactGenerator/genutils/messages/NamedMessages.vm with loader org.apache.velocity.runtime.resource.loader.ClasspathResourceLoader
2016-11-11 20:49:58,131 - ResourceManager : found ru/ai/ccb/artifactGenerator/algorithm/algorithm_script.vm with loader org.apache.velocity.runtime.resource.loader.ClasspathResourceLoader
2016-11-11 20:49:58,131 - ResourceManager : found ru/ai/ccb/artifactGenerator/batch/batch_script.vm with loader org.apache.velocity.runtime.resource.loader.ClasspathResourceLoader
2016-11-14 10:02:36,771 - SimpleLog4JLogSystem initialized using logfile 'velocity.log'
2016-11-14 10:02:36,771 - ************************************************************** 
2016-11-14 10:02:36,771 - Starting Jakarta Velocity v1.4
2016-11-14 10:02:36,771 - RuntimeInstance initializing.
2016-11-14 10:02:36,771 - Default Properties File: org\apache\velocity\runtime\defaults\velocity.properties
2016-11-14 10:02:36,771 - Trying to use logger class org.apache.velocity.runtime.log.AvalonLogSystem
2016-11-14 10:02:36,771 - Couldn't find class org.apache.velocity.runtime.log.AvalonLogSystem or necessary supporting classes in classpath. Exception : java.lang.NoClassDefFoundError: org/apache/log/format/Formatter
2016-11-14 10:02:36,771 - Trying to use logger class org.apache.velocity.runtime.log.SimpleLog4JLogSystem
2016-11-14 10:02:36,771 - Using logger class org.apache.velocity.runtime.log.SimpleLog4JLogSystem
2016-11-14 10:02:36,771 - Default ResourceManager initializing. (class org.apache.velocity.runtime.resource.ResourceManagerImpl)
2016-11-14 10:02:36,771 - Resource Loader Instantiated: org.apache.velocity.runtime.resource.loader.ClasspathResourceLoader
2016-11-14 10:02:36,771 - ClasspathResourceLoader : initialization starting.
2016-11-14 10:02:36,771 - ClasspathResourceLoader : initialization complete.
2016-11-14 10:02:36,771 - ResourceCache : initialized. (class org.apache.velocity.runtime.resource.ResourceCacheImpl)
2016-11-14 10:02:36,771 - Default ResourceManager initialization complete.
2016-11-14 10:02:36,771 - Loaded System Directive: org.apache.velocity.runtime.directive.Literal
2016-11-14 10:02:36,771 - Loaded System Directive: org.apache.velocity.runtime.directive.Macro
2016-11-14 10:02:36,771 - Loaded System Directive: org.apache.velocity.runtime.directive.Parse
2016-11-14 10:02:36,771 - Loaded System Directive: org.apache.velocity.runtime.directive.Include
2016-11-14 10:02:36,771 - Loaded System Directive: org.apache.velocity.runtime.directive.Foreach
2016-11-14 10:02:36,849 - Created: 20 parsers.
2016-11-14 10:02:36,849 - Velocimacro : initialization starting.
2016-11-14 10:02:36,849 - Velocimacro : allowInline = true : VMs can be defined inline in templates
2016-11-14 10:02:36,849 - Velocimacro : allowInlineToOverride = false : VMs defined inline may NOT replace previous VM definitions
2016-11-14 10:02:36,865 - Velocimacro : allowInlineLocal = false : VMs defined inline will be  global in scope if allowed.
2016-11-14 10:02:36,865 - Velocimacro : messages on  : VM system will output logging messages
2016-11-14 10:02:36,865 - Velocimacro : autoload off  : VM system will not automatically reload global library macros
2016-11-14 10:02:36,865 - Velocimacro : initialization complete.
2016-11-14 10:02:36,865 - Velocity successfully started.
2016-11-14 10:02:38,505 - ResourceManager : found ru/ai/ccb/artifactGenerator/genutils/messages/named_script.vm with loader org.apache.velocity.runtime.resource.loader.ClasspathResourceLoader
2016-11-14 10:02:38,567 - ResourceManager : found ru/ai/ccb/artifactGenerator/genutils/messages/NamedMessages.vm with loader org.apache.velocity.runtime.resource.loader.ClasspathResourceLoader
2016-11-14 10:02:38,583 - ResourceManager : found ru/ai/ccb/artifactGenerator/algorithm/algorithm_script.vm with loader org.apache.velocity.runtime.resource.loader.ClasspathResourceLoader
2016-11-14 10:02:38,598 - ResourceManager : found ru/ai/ccb/artifactGenerator/batch/batch_script.vm with loader org.apache.velocity.runtime.resource.loader.ClasspathResourceLoader
2016-11-14 10:04:31,924 - SimpleLog4JLogSystem initialized using logfile 'velocity.log'
2016-11-14 10:04:31,924 - ************************************************************** 
2016-11-14 10:04:31,924 - Starting Jakarta Velocity v1.4
2016-11-14 10:04:31,924 - RuntimeInstance initializing.
2016-11-14 10:04:31,924 - Default Properties File: org\apache\velocity\runtime\defaults\velocity.properties
2016-11-14 10:04:31,924 - Trying to use logger class org.apache.velocity.runtime.log.AvalonLogSystem
2016-11-14 10:04:31,924 - Couldn't find class org.apache.velocity.runtime.log.AvalonLogSystem or necessary supporting classes in classpath. Exception : java.lang.NoClassDefFoundError: org/apache/log/format/Formatter
2016-11-14 10:04:31,924 - Trying to use logger class org.apache.velocity.runtime.log.SimpleLog4JLogSystem
2016-11-14 10:04:31,924 - Using logger class org.apache.velocity.runtime.log.SimpleLog4JLogSystem
2016-11-14 10:04:31,924 - Default ResourceManager initializing. (class org.apache.velocity.runtime.resource.ResourceManagerImpl)
2016-11-14 10:04:31,924 - Resource Loader Instantiated: org.apache.velocity.runtime.resource.loader.ClasspathResourceLoader
2016-11-14 10:04:31,924 - ClasspathResourceLoader : initialization starting.
2016-11-14 10:04:31,924 - ClasspathResourceLoader : initialization complete.
2016-11-14 10:04:31,924 - ResourceCache : initialized. (class org.apache.velocity.runtime.resource.ResourceCacheImpl)
2016-11-14 10:04:31,924 - Default ResourceManager initialization complete.
2016-11-14 10:04:31,924 - Loaded System Directive: org.apache.velocity.runtime.directive.Literal
2016-11-14 10:04:31,924 - Loaded System Directive: org.apache.velocity.runtime.directive.Macro
2016-11-14 10:04:31,924 - Loaded System Directive: org.apache.velocity.runtime.directive.Parse
2016-11-14 10:04:31,924 - Loaded System Directive: org.apache.velocity.runtime.directive.Include
2016-11-14 10:04:31,924 - Loaded System Directive: org.apache.velocity.runtime.directive.Foreach
2016-11-14 10:04:31,955 - Created: 20 parsers.
2016-11-14 10:04:31,955 - Velocimacro : initialization starting.
2016-11-14 10:04:31,955 - Velocimacro : allowInline = true : VMs can be defined inline in templates
2016-11-14 10:04:31,955 - Velocimacro : allowInlineToOverride = false : VMs defined inline may NOT replace previous VM definitions
2016-11-14 10:04:31,955 - Velocimacro : allowInlineLocal = false : VMs defined inline will be  global in scope if allowed.
2016-11-14 10:04:31,955 - Velocimacro : messages on  : VM system will output logging messages
2016-11-14 10:04:31,955 - Velocimacro : autoload off  : VM system will not automatically reload global library macros
2016-11-14 10:04:31,955 - Velocimacro : initialization complete.
2016-11-14 10:04:31,955 - Velocity successfully started.
2016-11-14 10:04:33,580 - ResourceManager : found ru/ai/ccb/artifactGenerator/genutils/messages/named_script.vm with loader org.apache.velocity.runtime.resource.loader.ClasspathResourceLoader
2016-11-14 10:04:33,642 - ResourceManager : found ru/ai/ccb/artifactGenerator/genutils/messages/NamedMessages.vm with loader org.apache.velocity.runtime.resource.loader.ClasspathResourceLoader
2016-11-14 10:04:33,658 - ResourceManager : found ru/ai/ccb/artifactGenerator/algorithm/algorithm_script.vm with loader org.apache.velocity.runtime.resource.loader.ClasspathResourceLoader
2016-11-14 10:04:33,658 - ResourceManager : found ru/ai/ccb/artifactGenerator/batch/batch_script.vm with loader org.apache.velocity.runtime.resource.loader.ClasspathResourceLoader
2016-11-14 10:07:41,317 - SimpleLog4JLogSystem initialized using logfile 'velocity.log'
2016-11-14 10:07:41,317 - ************************************************************** 
2016-11-14 10:07:41,317 - Starting Jakarta Velocity v1.4
2016-11-14 10:07:41,317 - RuntimeInstance initializing.
2016-11-14 10:07:41,317 - Default Properties File: org\apache\velocity\runtime\defaults\velocity.properties
2016-11-14 10:07:41,317 - Trying to use logger class org.apache.velocity.runtime.log.AvalonLogSystem
2016-11-14 10:07:41,317 - Couldn't find class org.apache.velocity.runtime.log.AvalonLogSystem or necessary supporting classes in classpath. Exception : java.lang.NoClassDefFoundError: org/apache/log/format/Formatter
2016-11-14 10:07:41,317 - Trying to use logger class org.apache.velocity.runtime.log.SimpleLog4JLogSystem
2016-11-14 10:07:41,317 - Using logger class org.apache.velocity.runtime.log.SimpleLog4JLogSystem
2016-11-14 10:07:41,333 - Default ResourceManager initializing. (class org.apache.velocity.runtime.resource.ResourceManagerImpl)
2016-11-14 10:07:41,333 - Resource Loader Instantiated: org.apache.velocity.runtime.resource.loader.ClasspathResourceLoader
2016-11-14 10:07:41,333 - ClasspathResourceLoader : initialization starting.
2016-11-14 10:07:41,333 - ClasspathResourceLoader : initialization complete.
2016-11-14 10:07:41,333 - ResourceCache : initialized. (class org.apache.velocity.runtime.resource.ResourceCacheImpl)
2016-11-14 10:07:41,333 - Default ResourceManager initialization complete.
2016-11-14 10:07:41,333 - Loaded System Directive: org.apache.velocity.runtime.directive.Literal
2016-11-14 10:07:41,333 - Loaded System Directive: org.apache.velocity.runtime.directive.Macro
2016-11-14 10:07:41,333 - Loaded System Directive: org.apache.velocity.runtime.directive.Parse
2016-11-14 10:07:41,333 - Loaded System Directive: org.apache.velocity.runtime.directive.Include
2016-11-14 10:07:41,333 - Loaded System Directive: org.apache.velocity.runtime.directive.Foreach
2016-11-14 10:07:41,364 - Created: 20 parsers.
2016-11-14 10:07:41,364 - Velocimacro : initialization starting.
2016-11-14 10:07:41,364 - Velocimacro : allowInline = true : VMs can be defined inline in templates
2016-11-14 10:07:41,364 - Velocimacro : allowInlineToOverride = false : VMs defined inline may NOT replace previous VM definitions
2016-11-14 10:07:41,364 - Velocimacro : allowInlineLocal = false : VMs defined inline will be  global in scope if allowed.
2016-11-14 10:07:41,364 - Velocimacro : messages on  : VM system will output logging messages
2016-11-14 10:07:41,364 - Velocimacro : autoload off  : VM system will not automatically reload global library macros
2016-11-14 10:07:41,364 - Velocimacro : initialization complete.
2016-11-14 10:07:41,364 - Velocity successfully started.
2016-11-14 10:07:43,208 - ResourceManager : found ru/ai/ccb/artifactGenerator/genutils/messages/named_script.vm with loader org.apache.velocity.runtime.resource.loader.ClasspathResourceLoader
2016-11-14 10:07:43,286 - ResourceManager : found ru/ai/ccb/artifactGenerator/genutils/messages/NamedMessages.vm with loader org.apache.velocity.runtime.resource.loader.ClasspathResourceLoader
2016-11-14 10:07:43,302 - ResourceManager : found ru/ai/ccb/artifactGenerator/algorithm/algorithm_script.vm with loader org.apache.velocity.runtime.resource.loader.ClasspathResourceLoader
2016-11-14 10:07:43,302 - ResourceManager : found ru/ai/ccb/artifactGenerator/batch/batch_script.vm with loader org.apache.velocity.runtime.resource.loader.ClasspathResourceLoader
2016-11-14 11:17:23,388 - SimpleLog4JLogSystem initialized using logfile 'velocity.log'
2016-11-14 11:17:23,388 - ************************************************************** 
2016-11-14 11:17:23,388 - Starting Jakarta Velocity v1.4
2016-11-14 11:17:23,388 - RuntimeInstance initializing.
2016-11-14 11:17:23,388 - Default Properties File: org\apache\velocity\runtime\defaults\velocity.properties
2016-11-14 11:17:23,388 - Trying to use logger class org.apache.velocity.runtime.log.AvalonLogSystem
2016-11-14 11:17:23,388 - Couldn't find class org.apache.velocity.runtime.log.AvalonLogSystem or necessary supporting classes in classpath. Exception : java.lang.NoClassDefFoundError: org/apache/log/format/Formatter
2016-11-14 11:17:23,388 - Trying to use logger class org.apache.velocity.runtime.log.SimpleLog4JLogSystem
2016-11-14 11:17:23,388 - Using logger class org.apache.velocity.runtime.log.SimpleLog4JLogSystem
2016-11-14 11:17:23,390 - Default ResourceManager initializing. (class org.apache.velocity.runtime.resource.ResourceManagerImpl)
2016-11-14 11:17:23,393 - Resource Loader Instantiated: org.apache.velocity.runtime.resource.loader.ClasspathResourceLoader
2016-11-14 11:17:23,393 - ClasspathResourceLoader : initialization starting.
2016-11-14 11:17:23,393 - ClasspathResourceLoader : initialization complete.
2016-11-14 11:17:23,394 - ResourceCache : initialized. (class org.apache.velocity.runtime.resource.ResourceCacheImpl)
2016-11-14 11:17:23,394 - Default ResourceManager initialization complete.
2016-11-14 11:17:23,395 - Loaded System Directive: org.apache.velocity.runtime.directive.Literal
2016-11-14 11:17:23,396 - Loaded System Directive: org.apache.velocity.runtime.directive.Macro
2016-11-14 11:17:23,398 - Loaded System Directive: org.apache.velocity.runtime.directive.Parse
2016-11-14 11:17:23,399 - Loaded System Directive: org.apache.velocity.runtime.directive.Include
2016-11-14 11:17:23,399 - Loaded System Directive: org.apache.velocity.runtime.directive.Foreach
2016-11-14 11:17:23,420 - Created: 20 parsers.
2016-11-14 11:17:23,424 - Velocimacro : initialization starting.
2016-11-14 11:17:23,424 - Velocimacro : allowInline = true : VMs can be defined inline in templates
2016-11-14 11:17:23,424 - Velocimacro : allowInlineToOverride = false : VMs defined inline may NOT replace previous VM definitions
2016-11-14 11:17:23,425 - Velocimacro : allowInlineLocal = false : VMs defined inline will be  global in scope if allowed.
2016-11-14 11:17:23,425 - Velocimacro : messages on  : VM system will output logging messages
2016-11-14 11:17:23,425 - Velocimacro : autoload off  : VM system will not automatically reload global library macros
2016-11-14 11:17:23,425 - Velocimacro : initialization complete.
2016-11-14 11:17:23,425 - Velocity successfully started.
2016-11-14 11:17:25,263 - ResourceManager : found ru/ai/ccb/artifactGenerator/genutils/messages/named_script.vm with loader org.apache.velocity.runtime.resource.loader.ClasspathResourceLoader
2016-11-14 11:17:25,325 - ResourceManager : found ru/ai/ccb/artifactGenerator/genutils/messages/NamedMessages.vm with loader org.apache.velocity.runtime.resource.loader.ClasspathResourceLoader
2016-11-14 11:17:25,341 - ResourceManager : found ru/ai/ccb/artifactGenerator/algorithm/algorithm_script.vm with loader org.apache.velocity.runtime.resource.loader.ClasspathResourceLoader
2016-11-14 11:17:25,355 - ResourceManager : found ru/ai/ccb/artifactGenerator/batch/batch_script.vm with loader org.apache.velocity.runtime.resource.loader.ClasspathResourceLoader
2016-11-14 11:18:53,144 - SimpleLog4JLogSystem initialized using logfile 'velocity.log'
2016-11-14 11:18:53,144 - ************************************************************** 
2016-11-14 11:18:53,144 - Starting Jakarta Velocity v1.4
2016-11-14 11:18:53,144 - RuntimeInstance initializing.
2016-11-14 11:18:53,144 - Default Properties File: org\apache\velocity\runtime\defaults\velocity.properties
2016-11-14 11:18:53,144 - Trying to use logger class org.apache.velocity.runtime.log.AvalonLogSystem
2016-11-14 11:18:53,144 - Couldn't find class org.apache.velocity.runtime.log.AvalonLogSystem or necessary supporting classes in classpath. Exception : java.lang.NoClassDefFoundError: org/apache/log/format/Formatter
2016-11-14 11:18:53,144 - Trying to use logger class org.apache.velocity.runtime.log.SimpleLog4JLogSystem
2016-11-14 11:18:53,144 - Using logger class org.apache.velocity.runtime.log.SimpleLog4JLogSystem
2016-11-14 11:18:53,160 - Default ResourceManager initializing. (class org.apache.velocity.runtime.resource.ResourceManagerImpl)
2016-11-14 11:18:53,160 - Resource Loader Instantiated: org.apache.velocity.runtime.resource.loader.ClasspathResourceLoader
2016-11-14 11:18:53,160 - ClasspathResourceLoader : initialization starting.
2016-11-14 11:18:53,160 - ClasspathResourceLoader : initialization complete.
2016-11-14 11:18:53,160 - ResourceCache : initialized. (class org.apache.velocity.runtime.resource.ResourceCacheImpl)
2016-11-14 11:18:53,160 - Default ResourceManager initialization complete.
2016-11-14 11:18:53,160 - Loaded System Directive: org.apache.velocity.runtime.directive.Literal
2016-11-14 11:18:53,160 - Loaded System Directive: org.apache.velocity.runtime.directive.Macro
2016-11-14 11:18:53,160 - Loaded System Directive: org.apache.velocity.runtime.directive.Parse
2016-11-14 11:18:53,160 - Loaded System Directive: org.apache.velocity.runtime.directive.Include
2016-11-14 11:18:53,160 - Loaded System Directive: org.apache.velocity.runtime.directive.Foreach
2016-11-14 11:18:53,175 - Created: 20 parsers.
2016-11-14 11:18:53,191 - Velocimacro : initialization starting.
2016-11-14 11:18:53,191 - Velocimacro : allowInline = true : VMs can be defined inline in templates
2016-11-14 11:18:53,191 - Velocimacro : allowInlineToOverride = false : VMs defined inline may NOT replace previous VM definitions
2016-11-14 11:18:53,191 - Velocimacro : allowInlineLocal = false : VMs defined inline will be  global in scope if allowed.
2016-11-14 11:18:53,191 - Velocimacro : messages on  : VM system will output logging messages
2016-11-14 11:18:53,191 - Velocimacro : autoload off  : VM system will not automatically reload global library macros
2016-11-14 11:18:53,191 - Velocimacro : initialization complete.
2016-11-14 11:18:53,191 - Velocity successfully started.
2016-11-14 11:18:54,877 - ResourceManager : found ru/ai/ccb/artifactGenerator/genutils/messages/named_script.vm with loader org.apache.velocity.runtime.resource.loader.ClasspathResourceLoader
2016-11-14 11:18:54,941 - ResourceManager : found ru/ai/ccb/artifactGenerator/genutils/messages/NamedMessages.vm with loader org.apache.velocity.runtime.resource.loader.ClasspathResourceLoader
2016-11-14 11:18:54,956 - ResourceManager : found ru/ai/ccb/artifactGenerator/algorithm/algorithm_script.vm with loader org.apache.velocity.runtime.resource.loader.ClasspathResourceLoader
2016-11-14 11:18:54,988 - ResourceManager : found ru/ai/ccb/artifactGenerator/batch/batch_script.vm with loader org.apache.velocity.runtime.resource.loader.ClasspathResourceLoader
2016-11-14 11:48:22,555 - SimpleLog4JLogSystem initialized using logfile 'velocity.log'
2016-11-14 11:48:22,555 - ************************************************************** 
2016-11-14 11:48:22,555 - Starting Jakarta Velocity v1.4
2016-11-14 11:48:22,555 - RuntimeInstance initializing.
2016-11-14 11:48:22,555 - Default Properties File: org\apache\velocity\runtime\defaults\velocity.properties
2016-11-14 11:48:22,555 - Trying to use logger class org.apache.velocity.runtime.log.AvalonLogSystem
2016-11-14 11:48:22,555 - Couldn't find class org.apache.velocity.runtime.log.AvalonLogSystem or necessary supporting classes in classpath. Exception : java.lang.NoClassDefFoundError: org/apache/log/format/Formatter
2016-11-14 11:48:22,555 - Trying to use logger class org.apache.velocity.runtime.log.SimpleLog4JLogSystem
2016-11-14 11:48:22,555 - Using logger class org.apache.velocity.runtime.log.SimpleLog4JLogSystem
2016-11-14 11:48:22,555 - Default ResourceManager initializing. (class org.apache.velocity.runtime.resource.ResourceManagerImpl)
2016-11-14 11:48:22,555 - Resource Loader Instantiated: org.apache.velocity.runtime.resource.loader.ClasspathResourceLoader
2016-11-14 11:48:22,555 - ClasspathResourceLoader : initialization starting.
2016-11-14 11:48:22,555 - ClasspathResourceLoader : initialization complete.
2016-11-14 11:48:22,555 - ResourceCache : initialized. (class org.apache.velocity.runtime.resource.ResourceCacheImpl)
2016-11-14 11:48:22,555 - Default ResourceManager initialization complete.
2016-11-14 11:48:22,555 - Loaded System Directive: org.apache.velocity.runtime.directive.Literal
2016-11-14 11:48:22,555 - Loaded System Directive: org.apache.velocity.runtime.directive.Macro
2016-11-14 11:48:22,555 - Loaded System Directive: org.apache.velocity.runtime.directive.Parse
2016-11-14 11:48:22,555 - Loaded System Directive: org.apache.velocity.runtime.directive.Include
2016-11-14 11:48:22,555 - Loaded System Directive: org.apache.velocity.runtime.directive.Foreach
2016-11-14 11:48:22,587 - Created: 20 parsers.
2016-11-14 11:48:22,587 - Velocimacro : initialization starting.
2016-11-14 11:48:22,587 - Velocimacro : allowInline = true : VMs can be defined inline in templates
2016-11-14 11:48:22,587 - Velocimacro : allowInlineToOverride = false : VMs defined inline may NOT replace previous VM definitions
2016-11-14 11:48:22,587 - Velocimacro : allowInlineLocal = false : VMs defined inline will be  global in scope if allowed.
2016-11-14 11:48:22,587 - Velocimacro : messages on  : VM system will output logging messages
2016-11-14 11:48:22,587 - Velocimacro : autoload off  : VM system will not automatically reload global library macros
2016-11-14 11:48:22,587 - Velocimacro : initialization complete.
2016-11-14 11:48:22,587 - Velocity successfully started.
